EESchema Schematic File Version 2  date Пт 06 сен 2013 11:31:16
LIBS:power
LIBS:device
LIBS:transistors
LIBS:conn
LIBS:linear
LIBS:regul
LIBS:74xx
LIBS:cmos4000
LIBS:adc-dac
LIBS:memory
LIBS:xilinx
LIBS:special
LIBS:microcontrollers
LIBS:dsp
LIBS:microchip
LIBS:analog_switches
LIBS:motorola
LIBS:texas
LIBS:intel
LIBS:audio
LIBS:interface
LIBS:digital-audio
LIBS:philips
LIBS:display
LIBS:cypress
LIBS:siliconi
LIBS:opto
LIBS:atmel
LIBS:contrib
LIBS:valves
EELAYER 25  0
EELAYER END
$Descr A4 11700 8267
encoding utf-8
Sheet 1 1
Title ""
Date "6 sep 2013"
Rev ""
Comp ""
Comment1 ""
Comment2 ""
Comment3 ""
Comment4 ""
$EndDescr
Text Label 6300 3200 0    60   ~ 0
A2'
Text Label 6300 4300 0    60   ~ 0
A1'/G
Text Label 7600 5000 0    60   ~ 0
A1
Text Label 7600 3600 0    60   ~ 0
A2
Connection ~ 3700 4200
Wire Wire Line
	3700 4200 4950 4200
Wire Wire Line
	4000 3700 4000 4700
Wire Wire Line
	4000 4700 3500 4700
Connection ~ 3700 4500
Wire Wire Line
	3700 4500 3500 4500
Wire Wire Line
	3500 4100 3700 4100
Wire Wire Line
	6900 5000 7600 5000
Wire Wire Line
	7600 5000 7600 4100
Wire Wire Line
	7600 4100 7700 4100
Wire Wire Line
	6400 3200 6300 3200
Wire Wire Line
	7000 3700 7000 3200
Wire Wire Line
	7000 3200 6900 3200
Wire Wire Line
	6300 3200 6300 3900
Connection ~ 7000 5000
Wire Wire Line
	6900 5200 7000 5200
Connection ~ 6300 5200
Wire Wire Line
	6400 5400 6300 5400
Wire Wire Line
	6300 5400 6300 4300
Wire Wire Line
	6400 5000 6300 5000
Connection ~ 6300 3400
Wire Wire Line
	6900 3400 7000 3400
Wire Wire Line
	3700 3700 3700 5250
Connection ~ 6300 4300
Wire Wire Line
	4850 3900 4950 3900
Wire Wire Line
	6500 4300 6200 4300
Connection ~ 7000 3600
Wire Wire Line
	6900 3600 7600 3600
Connection ~ 3700 4100
Wire Wire Line
	6400 3600 6300 3600
Wire Wire Line
	6300 3900 6200 3900
Connection ~ 7000 3400
Wire Wire Line
	6300 3400 6400 3400
Connection ~ 6300 3600
Wire Wire Line
	6300 5200 6400 5200
Connection ~ 6300 5000
Wire Wire Line
	7700 3900 7600 3900
Wire Wire Line
	7600 3900 7600 3600
Wire Wire Line
	6900 5400 7000 5400
Wire Wire Line
	7000 5400 7000 4350
Connection ~ 7000 5200
Wire Wire Line
	4350 3900 3500 3900
Wire Wire Line
	3800 3900 3800 3900
Wire Wire Line
	3800 3900 3800 3700
Connection ~ 3800 3900
Wire Wire Line
	3500 4300 3900 4300
Wire Wire Line
	3900 4300 3900 3700
Wire Wire Line
	3500 4900 3700 4900
Connection ~ 3700 4900
$Comp
L CONN_2 P3
U 1 1 5228B357
P 3150 4800
F 0 "P3" V 3100 4800 40  0000 C CNN
F 1 "IN" V 3200 4800 40  0000 C CNN
	1    3150 4800
	-1   0    0    1   
$EndComp
$Comp
L CONN_2 P2
U 1 1 5228AC28
P 3150 4400
F 0 "P2" V 3100 4400 40  0000 C CNN
F 1 "IN" V 3200 4400 40  0000 C CNN
	1    3150 4400
	-1   0    0    1   
$EndComp
$Comp
L CONN_2 P1
U 1 1 5228ABF7
P 3150 4000
F 0 "P1" V 3100 4000 40  0000 C CNN
F 1 "IN" V 3200 4000 40  0000 C CNN
	1    3150 4000
	-1   0    0    1   
$EndComp
$Comp
L GND #PWR01
U 1 1 5228AB52
P 3700 5250
F 0 "#PWR01" H 3700 5250 30  0001 C CNN
F 1 "GND" H 3700 5180 30  0001 C CNN
	1    3700 5250
	1    0    0    -1  
$EndComp
$Comp
L R R2
U 1 1 52284258
P 6650 3200
F 0 "R2" V 6730 3200 50  0000 C CNN
F 1 "360" V 6650 3200 50  0000 C CNN
	1    6650 3200
	0    -1   -1   0   
$EndComp
$Comp
L CONN_2 P4
U 1 1 522843B0
P 8050 4000
F 0 "P4" V 8000 4000 40  0000 C CNN
F 1 "PSW" V 8100 4000 40  0000 C CNN
	1    8050 4000
	1    0    0    -1  
$EndComp
$Comp
L R R7
U 1 1 522842C6
P 6650 5400
F 0 "R7" V 6730 5400 50  0000 C CNN
F 1 "330" V 6650 5400 50  0000 C CNN
	1    6650 5400
	0    -1   -1   0   
$EndComp
$Comp
L R R6
U 1 1 522842C2
P 6650 5200
F 0 "R6" V 6730 5200 50  0000 C CNN
F 1 "330" V 6650 5200 50  0000 C CNN
	1    6650 5200
	0    -1   -1   0   
$EndComp
$Comp
L R R5
U 1 1 522842BA
P 6650 5000
F 0 "R5" V 6730 5000 50  0000 C CNN
F 1 "330" V 6650 5000 50  0000 C CNN
	1    6650 5000
	0    -1   -1   0   
$EndComp
$Comp
L R R3
U 1 1 52284257
P 6650 3400
F 0 "R3" V 6730 3400 50  0000 C CNN
F 1 "360" V 6650 3400 50  0000 C CNN
	1    6650 3400
	0    -1   -1   0   
$EndComp
$Comp
L RJ12 J1
U 1 1 52284199
P 3800 3250
F 0 "J1" H 4000 3750 60  0000 C CNN
F 1 "RJ12" H 3650 3750 60  0000 C CNN
	1    3800 3250
	1    0    0    -1  
$EndComp
$Comp
L TRIAC U2
U 1 1 4C412D35
P 7000 4100
F 0 "U2" H 6750 4450 70  0000 C CNN
F 1 "TRIAC" H 6700 3850 60  0000 C CNN
	1    7000 4100
	1    0    0    -1  
$EndComp
$Comp
L R R1
U 1 1 4C412D0C
P 4600 3900
F 0 "R1" V 4680 3900 50  0000 C CNN
F 1 "330" V 4600 3900 50  0000 C CNN
	1    4600 3900
	0    -1   -1   0   
$EndComp
$Comp
L R R4
U 1 1 4C412CF4
P 6650 3600
F 0 "R4" V 6730 3600 50  0000 C CNN
F 1 "360" V 6650 3600 50  0000 C CNN
	1    6650 3600
	0    -1   -1   0   
$EndComp
$Comp
L OPTO-TRIAC U1
U 1 1 4C412CAC
P 5600 4100
F 0 "U1" H 5800 4400 60  0000 C CNN
F 1 "OPTO-TRIAC" H 5700 3800 60  0000 C CNN
	1    5600 4100
	1    0    0    -1  
$EndComp
$EndSCHEMATC
