PCBNEW-LibModule-V1  Сбт 17 Июл 2010 11:46:39
$INDEX
TRIAC
$EndINDEX
$MODULE TRIAC
Po 0 0 0 15 4C4141E7 4C4141DC ~~
Li TRIAC
Cd Triac TO 220
Kw TRIAC
Sc 4C4141DC
AR 
Op 0 0 0
T0 2750 0 400 400 900 80 N V 21 N"TRIAC"
T1 4250 0 400 400 900 80 N V 21 N"VAL*"
DS 0 -1000 2000 -1000 120 21
DS 0 0 2000 0 120 21
DS 0 1000 2000 1000 120 21
DS 2000 2000 8000 2000 120 21
DS 8000 2000 8000 -2000 120 21
DS 8000 -2000 2000 -2000 120 21
DS 2000 -2000 2000 2000 120 21
DS 5000 1500 5000 -2000 120 21
DS 5000 1500 5000 2000 120 21
$PAD
Sh "1" R 700 700 0 0 0
Dr 450 0 0
At STD N 00E0FFFF
Ne 0 ""
Po 0 -1000
$EndPAD
$PAD
Sh "2" C 700 700 0 0 0
Dr 450 0 0
At STD N 00E0FFFF
Ne 0 ""
Po 0 0
$EndPAD
$PAD
Sh "3" C 700 700 0 0 0
Dr 450 0 0
At STD N 00E0FFFF
Ne 0 ""
Po 0 1000
$EndPAD
$PAD
Sh "4" R 3500 3500 0 0 0
Dr 1200 0 0
At STD N 00F0FFFF
Ne 0 ""
Po 6500 0
$EndPAD
$SHAPE3D
Na "discret/to220_horiz.wrl"
Sc 1.000000 1.000000 1.000000
Of 0.000000 0.000000 0.000000
Ro 0.000000 0.000000 0.000000
$EndSHAPE3D
$EndMODULE  TRIAC
$EndLIBRARY
