PCBNEW-LibModule-V1  Вт. 30 авг. 2011 09:45:52
$INDEX
RJ12
$EndINDEX
$MODULE RJ12
Po 0 0 0 15 4E5C5CDB 00000000 ~~
Li RJ12
Sc 00000000
AR 
Op 0 0 0
T0 0 0 600 600 0 120 N V 21 N"RJ12"
T1 0 -1000 600 600 0 120 N V 21 N"J*"
DS -1969 2362 1969 2362 150 21
DS 1181 787 1181 1575 150 21
DS 1181 1575 1969 1575 150 21
DS 1969 1575 1969 2362 150 21
DS 1969 2362 2362 2362 150 21
DS 1181 787 -1181 787 150 21
DS -1181 787 -1181 1575 150 21
DS -1181 1575 -1969 1575 150 21
DS -1969 1575 -1969 2362 150 21
DS -1969 2362 -2362 2362 150 21
DS -2362 2362 -2362 -2756 150 21
DS -2362 -2756 2362 -2756 150 21
DS 2362 -2756 2362 2362 150 21
$PAD
Sh "4" C 600 600 0 0 0
Dr 320 0 0
At STD N 00E0FFFF
Ne 0 ""
Po 197 -1771
$EndPAD
$PAD
Sh "2" C 600 600 0 0 0
Dr 320 0 0
At STD N 00E0FFFF
Ne 0 ""
Po -591 -1771
$EndPAD
$PAD
Sh "6" C 600 600 0 0 0
Dr 320 0 0
At STD N 00E0FFFF
Ne 0 ""
Po 984 -1771
$EndPAD
$PAD
Sh "1" C 600 600 0 0 0
Dr 320 0 0
At STD N 00E0FFFF
Ne 0 ""
Po -984 -787
$EndPAD
$PAD
Sh "3" C 600 600 0 0 0
Dr 320 0 0
At STD N 00E0FFFF
Ne 0 ""
Po -197 -787
$EndPAD
$PAD
Sh "5" C 600 600 0 0 0
Dr 320 0 0
At STD N 00E0FFFF
Ne 0 ""
Po 591 -787
$EndPAD
$PAD
Sh "8" C 1181 1181 0 0 0
Dr 320 0 0
At STD N 00E0FFFF
Ne 0 ""
Po 2362 0
$EndPAD
$PAD
Sh "7" C 1181 1181 0 0 0
Dr 320 0 0
At STD N 00E0FFFF
Ne 0 ""
Po -2362 0
$EndPAD
$EndMODULE  RJ12
$EndLIBRARY
