EESchema Schematic File Version 2
LIBS:power
LIBS:device
LIBS:transistors
LIBS:conn
LIBS:linear
LIBS:regul
LIBS:74xx
LIBS:cmos4000
LIBS:adc-dac
LIBS:memory
LIBS:xilinx
LIBS:special
LIBS:microcontrollers
LIBS:dsp
LIBS:microchip
LIBS:analog_switches
LIBS:motorola
LIBS:texas
LIBS:intel
LIBS:audio
LIBS:interface
LIBS:digital-audio
LIBS:philips
LIBS:display
LIBS:cypress
LIBS:siliconi
LIBS:opto
LIBS:atmel
LIBS:contrib
LIBS:valves
EELAYER 24 0
EELAYER END
$Descr A4 11693 8268
encoding utf-8
Sheet 1 1
Title ""
Date ""
Rev ""
Comp ""
Comment1 ""
Comment2 ""
Comment3 ""
Comment4 ""
$EndDescr
$Comp
L MOS_N Q101
U 1 1 535D335B
P 4500 2800
F 0 "Q101" H 4510 2970 60  0000 R CNN
F 1 "MOS_N" H 4510 2650 60  0000 R CNN
F 2 "SOT23GDS" H 4500 2800 60  0001 C CNN
F 3 "" H 4500 2800 60  0000 C CNN
	1    4500 2800
	0    -1   -1   0   
$EndComp
$Comp
L CONN_3 K101
U 1 1 535D3373
P 3750 3200
F 0 "K101" V 3700 3200 50  0000 C CNN
F 1 "CONN_3" V 3800 3200 40  0000 C CNN
F 2 "SIL-3" H 3750 3200 60  0001 C CNN
F 3 "" H 3750 3200 60  0000 C CNN
	1    3750 3200
	-1   0    0    1   
$EndComp
$Comp
L R R101
U 1 1 535D3439
P 4450 3600
F 0 "R101" V 4530 3600 40  0000 C CNN
F 1 "R" V 4457 3601 40  0000 C CNN
F 2 "SM0603" V 4380 3600 30  0001 C CNN
F 3 "" H 4450 3600 30  0000 C CNN
	1    4450 3600
	0    -1   -1   0   
$EndComp
$Comp
L CONN_2 P102
U 1 1 535D3448
P 3750 3700
F 0 "P102" V 3700 3700 40  0000 C CNN
F 1 "CONN_2" V 3800 3700 40  0000 C CNN
F 2 "SIL-2" H 3750 3700 60  0001 C CNN
F 3 "" H 3750 3700 60  0000 C CNN
	1    3750 3700
	-1   0    0    1   
$EndComp
$Comp
L LM358N U101
U 1 1 535D3951
P 7100 4100
F 0 "U101" H 7050 4300 60  0000 L CNN
F 1 "LM358N" H 7050 3850 60  0000 L CNN
F 2 "SO8E" H 7100 4100 60  0001 C CNN
F 3 "" H 7100 4100 60  0000 C CNN
	1    7100 4100
	1    0    0    -1  
$EndComp
$Comp
L LM358N U101
U 2 1 535D3960
P 8500 4100
F 0 "U101" H 8450 4300 60  0000 L CNN
F 1 "LM358N" H 8450 3850 60  0000 L CNN
F 2 "SO8E" H 8500 4100 60  0001 C CNN
F 3 "" H 8500 4100 60  0000 C CNN
	2    8500 4100
	1    0    0    -1  
$EndComp
Wire Wire Line
	4100 3300 4500 3300
Wire Wire Line
	4500 3300 4500 3000
Wire Wire Line
	4100 3200 4800 3200
Wire Wire Line
	4800 3200 4800 2700
Wire Wire Line
	4800 2700 4700 2700
Wire Wire Line
	4300 2700 4200 2700
Wire Wire Line
	4200 2700 4200 3100
Wire Wire Line
	4200 3100 4100 3100
Wire Wire Line
	4200 3600 4100 3600
Wire Wire Line
	4100 3800 4800 3800
Wire Wire Line
	4800 3800 4800 3600
Wire Wire Line
	4800 3600 4700 3600
Wire Wire Line
	7000 3700 7000 3600
Wire Wire Line
	7000 3600 8400 3600
Wire Wire Line
	8400 3450 8400 3700
Wire Wire Line
	8400 3450 9300 3450
Connection ~ 8400 3600
Wire Wire Line
	8400 4600 8400 4500
Wire Wire Line
	7000 4600 9100 4600
Wire Wire Line
	7000 4600 7000 4500
$Comp
L CONN_8 P101
U 1 1 535D3A14
P 9650 3100
F 0 "P101" V 9600 3100 60  0000 C CNN
F 1 "CONN_8" V 9700 3100 60  0000 C CNN
F 2 "DIP-8" H 9650 3100 60  0001 C CNN
F 3 "" H 9650 3100 60  0000 C CNN
	1    9650 3100
	1    0    0    -1  
$EndComp
Wire Wire Line
	8000 4000 7900 4000
Wire Wire Line
	7900 4000 7900 3150
Wire Wire Line
	7900 3150 9300 3150
Wire Wire Line
	8000 4200 7800 4200
Wire Wire Line
	7800 4200 7800 3250
Wire Wire Line
	7800 3250 9300 3250
Wire Wire Line
	7600 4100 7700 4100
Wire Wire Line
	7700 4100 7700 2750
Wire Wire Line
	7700 2750 9300 2750
Wire Wire Line
	9000 4100 9200 4100
Wire Wire Line
	9200 4100 9200 3350
Wire Wire Line
	9200 3350 9300 3350
Wire Wire Line
	9300 3050 9100 3050
Wire Wire Line
	9100 3050 9100 4600
Connection ~ 8400 4600
Wire Wire Line
	9300 2950 6500 2950
Wire Wire Line
	6500 2950 6500 4000
Wire Wire Line
	6500 4000 6600 4000
Wire Wire Line
	9300 2850 6400 2850
Wire Wire Line
	6400 2850 6400 4200
Wire Wire Line
	6400 4200 6600 4200
$Comp
L R R102
U 1 1 535D3D63
P 4450 4000
F 0 "R102" V 4530 4000 40  0000 C CNN
F 1 "R" V 4457 4001 40  0000 C CNN
F 2 "SM0805" V 4380 4000 30  0001 C CNN
F 3 "" H 4450 4000 30  0000 C CNN
	1    4450 4000
	0    -1   -1   0   
$EndComp
$Comp
L CONN_2 P103
U 1 1 535D3D69
P 3750 4100
F 0 "P103" V 3700 4100 40  0000 C CNN
F 1 "CONN_2" V 3800 4100 40  0000 C CNN
F 2 "SIL-2" H 3750 4100 60  0001 C CNN
F 3 "" H 3750 4100 60  0000 C CNN
	1    3750 4100
	-1   0    0    1   
$EndComp
Wire Wire Line
	4200 4000 4100 4000
Wire Wire Line
	4100 4200 4800 4200
Wire Wire Line
	4800 4200 4800 4000
Wire Wire Line
	4800 4000 4700 4000
$Comp
L R R103
U 1 1 535D3E51
P 4450 4400
F 0 "R103" V 4530 4400 40  0000 C CNN
F 1 "R" V 4457 4401 40  0000 C CNN
F 2 "SM1206" V 4380 4400 30  0001 C CNN
F 3 "" H 4450 4400 30  0000 C CNN
	1    4450 4400
	0    -1   -1   0   
$EndComp
$Comp
L CONN_2 P104
U 1 1 535D3E57
P 3750 4500
F 0 "P104" V 3700 4500 40  0000 C CNN
F 1 "CONN_2" V 3800 4500 40  0000 C CNN
F 2 "SIL-2" H 3750 4500 60  0001 C CNN
F 3 "" H 3750 4500 60  0000 C CNN
	1    3750 4500
	-1   0    0    1   
$EndComp
Wire Wire Line
	4200 4400 4100 4400
Wire Wire Line
	4100 4600 4800 4600
Wire Wire Line
	4800 4600 4800 4400
Wire Wire Line
	4800 4400 4700 4400
$Comp
L LM317EMP U102
U 1 1 535D4872
P 4300 5750
F 0 "U102" H 4100 5950 40  0000 C CNN
F 1 "LM317EMP" H 4300 5950 40  0000 L CNN
F 2 "SOT223" H 4300 5850 30  0000 C CIN
F 3 "" H 4300 5750 60  0000 C CNN
	1    4300 5750
	1    0    0    -1  
$EndComp
$Comp
L CONN_3 K102
U 1 1 535D4884
P 3350 5800
F 0 "K102" V 3300 5800 50  0000 C CNN
F 1 "CONN_3" V 3400 5800 40  0000 C CNN
F 2 "SIL-3" H 3350 5800 60  0001 C CNN
F 3 "" H 3350 5800 60  0000 C CNN
	1    3350 5800
	-1   0    0    1   
$EndComp
Wire Wire Line
	3700 5700 3900 5700
Wire Wire Line
	3700 5800 3900 5800
Wire Wire Line
	3900 5800 3900 6100
Wire Wire Line
	3900 6100 4800 6100
Wire Wire Line
	4800 6100 4800 5700
Wire Wire Line
	4800 5700 4700 5700
Wire Wire Line
	3700 5900 3800 5900
Wire Wire Line
	3800 5900 3800 6200
Wire Wire Line
	3800 6200 4300 6200
Wire Wire Line
	4300 6200 4300 6000
$Comp
L R R104
U 1 1 535D5471
P 4450 4800
F 0 "R104" V 4530 4800 40  0000 C CNN
F 1 "R" V 4457 4801 40  0000 C CNN
F 2 "SM0603" V 4380 4800 30  0001 C CNN
F 3 "" H 4450 4800 30  0000 C CNN
	1    4450 4800
	0    -1   -1   0   
$EndComp
$Comp
L CONN_2 P105
U 1 1 535D5477
P 3750 4900
F 0 "P105" V 3700 4900 40  0000 C CNN
F 1 "CONN_2" V 3800 4900 40  0000 C CNN
F 2 "SIL-2" H 3750 4900 60  0001 C CNN
F 3 "" H 3750 4900 60  0000 C CNN
	1    3750 4900
	-1   0    0    1   
$EndComp
Wire Wire Line
	4200 4800 4100 4800
Wire Wire Line
	4100 5000 4800 5000
Wire Wire Line
	4800 5000 4800 4800
Wire Wire Line
	4800 4800 4700 4800
$Comp
L R R105
U 1 1 535D55F0
P 4450 5200
F 0 "R105" V 4530 5200 40  0000 C CNN
F 1 "R" V 4457 5201 40  0000 C CNN
F 2 "SM0805" V 4380 5200 30  0001 C CNN
F 3 "" H 4450 5200 30  0000 C CNN
	1    4450 5200
	0    -1   -1   0   
$EndComp
$Comp
L CONN_2 P106
U 1 1 535D55F6
P 3750 5300
F 0 "P106" V 3700 5300 40  0000 C CNN
F 1 "CONN_2" V 3800 5300 40  0000 C CNN
F 2 "SIL-2" H 3750 5300 60  0001 C CNN
F 3 "" H 3750 5300 60  0000 C CNN
	1    3750 5300
	-1   0    0    1   
$EndComp
Wire Wire Line
	4200 5200 4100 5200
Wire Wire Line
	4100 5400 4800 5400
Wire Wire Line
	4800 5400 4800 5200
Wire Wire Line
	4800 5200 4700 5200
$Comp
L MOS_N Q?
U 1 1 535D56FF
P 5750 2800
F 0 "Q?" H 5760 2970 60  0000 R CNN
F 1 "MOS_N" H 5760 2650 60  0000 R CNN
F 2 "SOT23GDS" H 5750 2800 60  0001 C CNN
F 3 "" H 5750 2800 60  0000 C CNN
	1    5750 2800
	0    -1   -1   0   
$EndComp
$Comp
L CONN_3 K?
U 1 1 535D5705
P 5000 3200
F 0 "K?" V 4950 3200 50  0000 C CNN
F 1 "CONN_3" V 5050 3200 40  0000 C CNN
F 2 "SIL-3" H 5000 3200 60  0001 C CNN
F 3 "" H 5000 3200 60  0000 C CNN
	1    5000 3200
	-1   0    0    1   
$EndComp
Wire Wire Line
	5350 3300 5750 3300
Wire Wire Line
	5750 3300 5750 3000
Wire Wire Line
	5350 3200 6050 3200
Wire Wire Line
	6050 3200 6050 2700
Wire Wire Line
	6050 2700 5950 2700
Wire Wire Line
	5550 2700 5450 2700
Wire Wire Line
	5450 2700 5450 3100
Wire Wire Line
	5450 3100 5350 3100
$EndSCHEMATC
