(export (version D)
  (design
    (source /home/kayo/devel/hardware/lab_boards/project.sch)
    (date "Вс 27 апр 2014 23:27:35")
    (tool "eeschema (2013-mar-13)-testing"))
  (components
    (comp (ref Q101)
      (value MOS_N)
      (footprint SOT23GDS)
      (libsource (lib device) (part MOS_N))
      (sheetpath (names /) (tstamps /))
      (tstamp 535D335B))
    (comp (ref K101)
      (value CONN_3)
      (footprint SIL-3)
      (libsource (lib conn) (part CONN_3))
      (sheetpath (names /) (tstamps /))
      (tstamp 535D3373))
    (comp (ref R101)
      (value R)
      (footprint SM0603)
      (libsource (lib device) (part R))
      (sheetpath (names /) (tstamps /))
      (tstamp 535D3439))
    (comp (ref P102)
      (value CONN_2)
      (footprint SIL-2)
      (libsource (lib conn) (part CONN_2))
      (sheetpath (names /) (tstamps /))
      (tstamp 535D3448))
    (comp (ref U101)
      (value LM358N)
      (footprint SO8E)
      (libsource (lib linear) (part LM358N))
      (sheetpath (names /) (tstamps /))
      (tstamp 535D3951))
    (comp (ref P101)
      (value CONN_8)
      (footprint DIP-8)
      (libsource (lib conn) (part CONN_8))
      (sheetpath (names /) (tstamps /))
      (tstamp 535D3A14))
    (comp (ref R102)
      (value R)
      (footprint SM0805)
      (libsource (lib device) (part R))
      (sheetpath (names /) (tstamps /))
      (tstamp 535D3D63))
    (comp (ref P103)
      (value CONN_2)
      (footprint SIL-2)
      (libsource (lib conn) (part CONN_2))
      (sheetpath (names /) (tstamps /))
      (tstamp 535D3D69))
    (comp (ref R103)
      (value R)
      (footprint SM1206)
      (libsource (lib device) (part R))
      (sheetpath (names /) (tstamps /))
      (tstamp 535D3E51))
    (comp (ref P104)
      (value CONN_2)
      (footprint SIL-2)
      (libsource (lib conn) (part CONN_2))
      (sheetpath (names /) (tstamps /))
      (tstamp 535D3E57))
    (comp (ref U102)
      (value LM317EMP)
      (footprint SOT223)
      (libsource (lib regul) (part LM317EMP))
      (sheetpath (names /) (tstamps /))
      (tstamp 535D4872))
    (comp (ref K102)
      (value CONN_3)
      (footprint SIL-3)
      (libsource (lib conn) (part CONN_3))
      (sheetpath (names /) (tstamps /))
      (tstamp 535D4884))
    (comp (ref R104)
      (value R)
      (footprint SM0603)
      (libsource (lib device) (part R))
      (sheetpath (names /) (tstamps /))
      (tstamp 535D5471))
    (comp (ref P105)
      (value CONN_2)
      (footprint SIL-2)
      (libsource (lib conn) (part CONN_2))
      (sheetpath (names /) (tstamps /))
      (tstamp 535D5477))
    (comp (ref R105)
      (value R)
      (footprint SM0805)
      (libsource (lib device) (part R))
      (sheetpath (names /) (tstamps /))
      (tstamp 535D55F0))
    (comp (ref P106)
      (value CONN_2)
      (footprint SIL-2)
      (libsource (lib conn) (part CONN_2))
      (sheetpath (names /) (tstamps /))
      (tstamp 535D55F6)))
  (libparts
    (libpart (lib device) (part MOS_N)
      (docs transistors/mos/*.*)
      (fields
        (field (name Reference) Q)
        (field (name Value) MOS_N))
      (pins
        (pin (num D) (name D) (type passive))
        (pin (num G) (name G) (type input))
        (pin (num S) (name S) (type passive))))
    (libpart (lib device) (part R)
      (description Resistance)
      (footprints
        (fp R?)
        (fp SM0603)
        (fp SM0805)
        (fp R?-*)
        (fp SM1206))
      (fields
        (field (name Reference) R)
        (field (name Value) R))
      (pins
        (pin (num 1) (name ~) (type passive))
        (pin (num 2) (name ~) (type passive))))
    (libpart (lib conn) (part CONN_2)
      (description "Symbole general de connecteur")
      (fields
        (field (name Reference) P)
        (field (name Value) CONN_2))
      (pins
        (pin (num 1) (name P1) (type passive))
        (pin (num 2) (name PM) (type passive))))
    (libpart (lib conn) (part CONN_3)
      (description "Symbole general de connecteur")
      (fields
        (field (name Reference) K)
        (field (name Value) CONN_3))
      (pins
        (pin (num 1) (name P1) (type passive))
        (pin (num 2) (name PM) (type passive))
        (pin (num 3) (name P3) (type passive))))
    (libpart (lib conn) (part CONN_8)
      (description "Symbole general de connecteur")
      (fields
        (field (name Reference) P)
        (field (name Value) CONN_8))
      (pins
        (pin (num 1) (name P1) (type passive))
        (pin (num 2) (name P2) (type passive))
        (pin (num 3) (name P3) (type passive))
        (pin (num 4) (name P4) (type passive))
        (pin (num 5) (name P5) (type passive))
        (pin (num 6) (name P6) (type passive))
        (pin (num 7) (name P7) (type passive))
        (pin (num 8) (name P8) (type passive))))
    (libpart (lib linear) (part LM358)
      (description "Dual Op amp (low power)")
      (docs ns/lm158.pdf)
      (fields
        (field (name Reference) U)
        (field (name Value) LM358))
      (pins
        (pin (num 1) (name ~) (type output))
        (pin (num 2) (name -) (type input))
        (pin (num 3) (name +) (type input))
        (pin (num 4) (name V-) (type power_in))
        (pin (num 5) (name +) (type input))
        (pin (num 6) (name -) (type input))
        (pin (num 7) (name ~) (type output))
        (pin (num 8) (name V+) (type power_in))))
    (libpart (lib regul) (part LM317EMP)
      (description "LM317EMP, 1A 35V Adjustable Linear Regulator, SOT-223")
      (docs http://www.national.com/ds/LM/LM117.pdf)
      (footprints
        (fp SOT*))
      (fields
        (field (name Reference) U)
        (field (name Value) LM317EMP)
        (field (name Footprint) SOT-223))
      (pins
        (pin (num 1) (name ADJ) (type input))
        (pin (num 2) (name OUT) (type power_out))
        (pin (num 3) (name IN) (type input)))))
  (libraries
    (library (logical device)
      (uri /usr/share/kicad/library/device.lib))
    (library (logical conn)
      (uri /usr/share/kicad/library/conn.lib))
    (library (logical linear)
      (uri /usr/share/kicad/library/linear.lib))
    (library (logical regul)
      (uri /usr/share/kicad/library/regul.lib)))
  (nets
    (net (code 1) (name "")
      (node (ref R102) (pin 1))
      (node (ref P103) (pin 2)))
    (net (code 2) (name "")
      (node (ref U102) (pin 3))
      (node (ref K102) (pin 3)))
    (net (code 3) (name "")
      (node (ref K102) (pin 2))
      (node (ref U102) (pin 2)))
    (net (code 4) (name "")
      (node (ref K102) (pin 1))
      (node (ref U102) (pin 1)))
    (net (code 5) (name "")
      (node (ref R103) (pin 2))
      (node (ref P104) (pin 1)))
    (net (code 6) (name "")
      (node (ref P104) (pin 2))
      (node (ref R103) (pin 1)))
    (net (code 7) (name "")
      (node (ref R102) (pin 2))
      (node (ref P103) (pin 1)))
    (net (code 8) (name "")
      (node (ref P101) (pin 2))
      (node (ref U101) (pin 2)))
    (net (code 9) (name "")
      (node (ref P101) (pin 3))
      (node (ref U101) (pin 3)))
    (net (code 10) (name "")
      (node (ref P105) (pin 1))
      (node (ref R104) (pin 2)))
    (net (code 11) (name "")
      (node (ref R105) (pin 2))
      (node (ref P106) (pin 1)))
    (net (code 12) (name "")
      (node (ref R105) (pin 1))
      (node (ref P106) (pin 2)))
    (net (code 13) (name "")
      (node (ref P105) (pin 2))
      (node (ref R104) (pin 1)))
    (net (code 14) (name "")
      (node (ref R101) (pin 1))
      (node (ref P102) (pin 2)))
    (net (code 15) (name "")
      (node (ref K101) (pin 3))
      (node (ref Q101) (pin D)))
    (net (code 16) (name "")
      (node (ref K101) (pin 2))
      (node (ref Q101) (pin S)))
    (net (code 17) (name "")
      (node (ref Q101) (pin G))
      (node (ref K101) (pin 1)))
    (net (code 18) (name "")
      (node (ref U101) (pin 7))
      (node (ref P101) (pin 7)))
    (net (code 19) (name "")
      (node (ref P101) (pin 4))
      (node (ref U101) (pin 4)))
    (net (code 20) (name "")
      (node (ref P102) (pin 1))
      (node (ref R101) (pin 2)))
    (net (code 21) (name "")
      (node (ref U101) (pin 1))
      (node (ref P101) (pin 1)))
    (net (code 22) (name "")
      (node (ref U101) (pin 6))
      (node (ref P101) (pin 6)))
    (net (code 23) (name "")
      (node (ref P101) (pin 5))
      (node (ref U101) (pin 5)))
    (net (code 24) (name "")
      (node (ref U101) (pin 8))
      (node (ref P101) (pin 8)))))