(kicad_pcb (version 4) (host pcbnew 4.0.0-rc1-stable)

  (general
    (links 33)
    (no_connects 5)
    (area 142.139999 93.879999 157.580001 111.860001)
    (thickness 1.6002)
    (drawings 8)
    (tracks 32)
    (zones 0)
    (modules 6)
    (nets 6)
  )

  (page A4)
  (title_block
    (date "10 dec 2013")
  )

  (layers
    (0 Front signal)
    (31 Back signal)
    (32 B.Adhes user)
    (33 F.Adhes user)
    (34 B.Paste user)
    (35 F.Paste user)
    (36 B.SilkS user)
    (37 F.SilkS user)
    (38 B.Mask user)
    (39 F.Mask user)
    (40 Dwgs.User user)
    (41 Cmts.User user)
    (42 Eco1.User user)
    (43 Eco2.User user)
    (44 Edge.Cuts user)
  )

  (setup
    (last_trace_width 0.38)
    (user_trace_width 0.38)
    (user_trace_width 0.43688)
    (trace_clearance 0.254)
    (zone_clearance 0.254)
    (zone_45_only no)
    (trace_min 0.2032)
    (segment_width 0.381)
    (edge_width 0.2)
    (via_size 0.889)
    (via_drill 0.635)
    (via_min_size 0.889)
    (via_min_drill 0.508)
    (uvia_size 0.508)
    (uvia_drill 0.127)
    (uvias_allowed no)
    (uvia_min_size 0.508)
    (uvia_min_drill 0.127)
    (pcb_text_width 0.3048)
    (pcb_text_size 1.524 2.032)
    (mod_edge_width 0.381)
    (mod_text_size 1.524 1.524)
    (mod_text_width 0.3048)
    (pad_size 1.00076 1.00076)
    (pad_drill 0.50038)
    (pad_to_mask_clearance 0.254)
    (aux_axis_origin 0 0)
    (visible_elements FFFFFF7F)
    (pcbplotparams
      (layerselection 0x00030_80000001)
      (usegerberextensions true)
      (excludeedgelayer false)
      (linewidth 0.150000)
      (plotframeref false)
      (viasonmask false)
      (mode 1)
      (useauxorigin false)
      (hpglpennumber 1)
      (hpglpenspeed 20)
      (hpglpendiameter 15)
      (hpglpenoverlay 0)
      (psnegative false)
      (psa4output false)
      (plotreference true)
      (plotvalue true)
      (plotinvisibletext false)
      (padsonsilk false)
      (subtractmaskfromsilk false)
      (outputformat 2)
      (mirror false)
      (drillshape 1)
      (scaleselection 1)
      (outputdirectory ""))
  )

  (net 0 "")
  (net 1 GND)
  (net 2 +5V)
  (net 3 /D-)
  (net 4 /D+)
  (net 5 /ID)

  (net_class Default "Это класс цепей по умолчанию."
    (clearance 0.254)
    (trace_width 0.2032)
    (via_dia 0.889)
    (via_drill 0.635)
    (uvia_dia 0.508)
    (uvia_drill 0.127)
    (add_net +5V)
    (add_net /D+)
    (add_net /D-)
    (add_net /ID)
    (add_net GND)
  )

  (module Local:USB_B_FIXED (layer Front) (tedit 56A1F2D6) (tstamp 56A1EEAD)
    (at 149.86 101.6)
    (tags USB)
    (path /56A1EC4C)
    (fp_text reference P1 (at 4.318 -4.572) (layer F.SilkS)
      (effects (font (thickness 0.3048)))
    )
    (fp_text value USB_B (at 0 0) (layer F.SilkS)
      (effects (font (thickness 0.3048)))
    )
    (fp_line (start -6.096 10.287) (end 6.096 10.287) (layer F.SilkS) (width 0.127))
    (fp_line (start 6.096 10.287) (end 6.096 -6.731) (layer F.SilkS) (width 0.127))
    (fp_line (start 6.096 -6.731) (end -6.096 -6.731) (layer F.SilkS) (width 0.127))
    (fp_line (start -6.096 -6.731) (end -6.096 10.287) (layer F.SilkS) (width 0.127))
    (pad 1 thru_hole circle (at 1.27 -5.08) (size 1.99898 1.99898) (drill 0.8128) (layers *.Cu *.Mask F.SilkS)
      (net 2 +5V))
    (pad 2 thru_hole circle (at -1.27 -5.08) (size 1.99898 1.99898) (drill 0.8128) (layers *.Cu *.Mask F.SilkS)
      (net 3 /D-))
    (pad 3 thru_hole circle (at -1.27 -2.54) (size 1.99898 1.99898) (drill 0.8128) (layers *.Cu *.Mask F.SilkS)
      (net 4 /D+))
    (pad 4 thru_hole circle (at 1.27 -2.54) (size 1.99898 1.99898) (drill 0.8128) (layers *.Cu *.Mask F.SilkS)
      (net 1 GND))
    (pad 5 np_thru_hole circle (at 5.99948 0) (size 2.70002 2.70002) (drill 2.30124) (layers *.Cu *.SilkS *.Mask)
      (net 1 GND))
    (pad 5 thru_hole circle (at -5.99948 0) (size 2.70002 2.70002) (drill 2.30124) (layers *.Cu *.Mask F.SilkS)
      (net 1 GND))
    (model connectors/USB_type_B.wrl
      (at (xyz 0 0 0.001))
      (scale (xyz 0.3937 0.3937 0.3937))
      (rotate (xyz 0 0 0))
    )
  )

  (module Local:R_0603 (layer Front) (tedit 56A1F422) (tstamp 56A1EEC2)
    (at 151.384 101.092 180)
    (descr "Resistor SMD 0603, reflow soldering, Vishay (see dcrcw.pdf)")
    (tags "resistor 0603")
    (path /56A1F041)
    (attr smd)
    (fp_text reference R1 (at -2.286 0 180) (layer F.SilkS)
      (effects (font (size 1 1) (thickness 0.15)))
    )
    (fp_text value R (at -1.778 1.27 180) (layer F.Fab)
      (effects (font (size 1 1) (thickness 0.15)))
    )
    (fp_line (start -1.3 -0.8) (end 1.3 -0.8) (layer F.CrtYd) (width 0.05))
    (fp_line (start -1.3 0.8) (end 1.3 0.8) (layer F.CrtYd) (width 0.05))
    (fp_line (start -1.3 -0.8) (end -1.3 0.8) (layer F.CrtYd) (width 0.05))
    (fp_line (start 1.3 -0.8) (end 1.3 0.8) (layer F.CrtYd) (width 0.05))
    (fp_line (start 0.5 0.675) (end -0.5 0.675) (layer F.SilkS) (width 0.15))
    (fp_line (start -0.5 -0.675) (end 0.5 -0.675) (layer F.SilkS) (width 0.15))
    (pad 1 smd rect (at -0.75 0 180) (size 0.5 0.9) (layers Front F.Paste F.Mask)
      (net 1 GND))
    (pad 2 smd rect (at 0.75 0 180) (size 0.5 0.9) (layers Front F.Paste F.Mask)
      (net 5 /ID))
    (model Resistors_SMD.3dshapes/R_0603.wrl
      (at (xyz 0 0 0))
      (scale (xyz 1 1 1))
      (rotate (xyz 0 0 0))
    )
  )

  (module Local:USB-B (layer Front) (tedit 56A1EDE3) (tstamp 56A1F457)
    (at 124.46 101.6)
    (tags USB)
    (path /56A1F61B)
    (fp_text reference P3 (at 0 6.35) (layer F.SilkS)
      (effects (font (thickness 0.3048)))
    )
    (fp_text value USB_B (at 0 0) (layer F.SilkS)
      (effects (font (thickness 0.3048)))
    )
    (fp_line (start -6.096 10.287) (end 6.096 10.287) (layer F.SilkS) (width 0.127))
    (fp_line (start 6.096 10.287) (end 6.096 -6.731) (layer F.SilkS) (width 0.127))
    (fp_line (start 6.096 -6.731) (end -6.096 -6.731) (layer F.SilkS) (width 0.127))
    (fp_line (start -6.096 -6.731) (end -6.096 10.287) (layer F.SilkS) (width 0.127))
    (pad 1 thru_hole circle (at 1.27 -5.08) (size 1.99898 1.99898) (drill 0.8128) (layers *.Cu *.Mask F.SilkS)
      (net 2 +5V))
    (pad 2 thru_hole circle (at -1.27 -5.08) (size 1.99898 1.99898) (drill 0.8128) (layers *.Cu *.Mask F.SilkS)
      (net 3 /D-))
    (pad 3 thru_hole circle (at -1.27 -2.54) (size 1.99898 1.99898) (drill 0.8128) (layers *.Cu *.Mask F.SilkS)
      (net 4 /D+))
    (pad 4 thru_hole circle (at 1.27 -2.54) (size 1.99898 1.99898) (drill 0.8128) (layers *.Cu *.Mask F.SilkS)
      (net 1 GND))
    (pad 5 np_thru_hole circle (at 5.99948 0) (size 2.70002 2.70002) (drill 2.30124) (layers *.Cu *.SilkS *.Mask)
      (net 1 GND))
    (pad 5 thru_hole circle (at -5.99948 0) (size 2.70002 2.70002) (drill 2.30124) (layers *.Cu *.Mask F.SilkS)
      (net 1 GND))
    (model connectors/USB_type_B.wrl
      (at (xyz 0 0 0.001))
      (scale (xyz 0.3937 0.3937 0.3937))
      (rotate (xyz 0 0 0))
    )
  )

  (module Local:USB_Micro-B (layer Front) (tedit 56A1F5E0) (tstamp 56A1F466)
    (at 124.46 107.95)
    (descr "Micro USB Type B Receptacle")
    (tags "USB USB_B USB_micro USB_OTG")
    (path /56A1F615)
    (attr smd)
    (fp_text reference P4 (at 0 -3.45) (layer F.SilkS)
      (effects (font (size 1 1) (thickness 0.15)))
    )
    (fp_text value USB_OTG (at -5.08 0 90) (layer F.Fab)
      (effects (font (size 1 1) (thickness 0.15)))
    )
    (fp_line (start -4.6 -2.8) (end 4.6 -2.8) (layer F.CrtYd) (width 0.05))
    (fp_line (start 4.6 -2.8) (end 4.6 4.05) (layer F.CrtYd) (width 0.05))
    (fp_line (start 4.6 4.05) (end -4.6 4.05) (layer F.CrtYd) (width 0.05))
    (fp_line (start -4.6 4.05) (end -4.6 -2.8) (layer F.CrtYd) (width 0.05))
    (fp_line (start -4.3509 3.81746) (end 4.3491 3.81746) (layer F.SilkS) (width 0.15))
    (fp_line (start -4.3509 -2.58754) (end 4.3491 -2.58754) (layer F.SilkS) (width 0.15))
    (fp_line (start 4.3491 -2.58754) (end 4.3491 3.81746) (layer F.SilkS) (width 0.15))
    (fp_line (start 4.3491 2.58746) (end -4.3509 2.58746) (layer F.SilkS) (width 0.15))
    (fp_line (start -4.3509 3.81746) (end -4.3509 -2.58754) (layer F.SilkS) (width 0.15))
    (pad 1 smd rect (at -1.3009 -1.56254 90) (size 1.35 0.4) (layers Front F.Paste F.Mask)
      (net 2 +5V))
    (pad 2 smd rect (at -0.6509 -1.56254 90) (size 1.35 0.4) (layers Front F.Paste F.Mask)
      (net 3 /D-))
    (pad 3 smd rect (at -0.0009 -1.56254 90) (size 1.35 0.4) (layers Front F.Paste F.Mask)
      (net 4 /D+))
    (pad 4 smd rect (at 0.6491 -1.56254 90) (size 1.35 0.4) (layers Front F.Paste F.Mask)
      (net 5 /ID))
    (pad 5 smd rect (at 1.2991 -1.56254 90) (size 1.35 0.4) (layers Front F.Paste F.Mask)
      (net 1 GND))
    (pad 6 thru_hole oval (at -2.286 -0.889 90) (size 0.95 1.25) (drill oval 0.55 0.85) (layers *.Cu *.Mask F.SilkS)
      (net 1 GND))
    (pad 6 thru_hole oval (at 2.286 -0.889 90) (size 0.95 1.25) (drill oval 0.55 0.85) (layers *.Cu *.Mask F.SilkS)
      (net 1 GND))
    (pad 6 thru_hole oval (at -3.556 1.016 90) (size 1.55 1) (drill oval 1.15 0.5) (layers *.Cu *.Mask F.SilkS)
      (net 1 GND))
    (pad 6 thru_hole oval (at 3.556 1.016 90) (size 1.55 1) (drill oval 1.15 0.5) (layers *.Cu *.Mask F.SilkS)
      (net 1 GND))
    (pad 6 thru_hole oval (at -3.556 -2.286 90) (size 1.55 1) (drill oval 1.15 0.5) (layers *.Cu *.Mask F.SilkS)
      (net 1 GND))
    (pad 6 thru_hole oval (at 3.556 -2.286 90) (size 1.55 1) (drill oval 1.15 0.5) (layers *.Cu *.Mask F.SilkS)
      (net 1 GND))
  )

  (module Local:R_0603 (layer Front) (tedit 56A1F5F0) (tstamp 56A1F46C)
    (at 125.984 102.87 180)
    (descr "Resistor SMD 0603, reflow soldering, Vishay (see dcrcw.pdf)")
    (tags "resistor 0603")
    (path /56A1F639)
    (attr smd)
    (fp_text reference R2 (at -0.381 -1.27 180) (layer F.SilkS)
      (effects (font (size 1 1) (thickness 0.15)))
    )
    (fp_text value R (at 0 1.9 180) (layer F.Fab)
      (effects (font (size 1 1) (thickness 0.15)))
    )
    (fp_line (start -1.3 -0.8) (end 1.3 -0.8) (layer F.CrtYd) (width 0.05))
    (fp_line (start -1.3 0.8) (end 1.3 0.8) (layer F.CrtYd) (width 0.05))
    (fp_line (start -1.3 -0.8) (end -1.3 0.8) (layer F.CrtYd) (width 0.05))
    (fp_line (start 1.3 -0.8) (end 1.3 0.8) (layer F.CrtYd) (width 0.05))
    (fp_line (start 0.5 0.675) (end -0.5 0.675) (layer F.SilkS) (width 0.15))
    (fp_line (start -0.5 -0.675) (end 0.5 -0.675) (layer F.SilkS) (width 0.15))
    (pad 1 smd rect (at -0.75 0 180) (size 0.5 0.9) (layers Front F.Paste F.Mask)
      (net 1 GND))
    (pad 2 smd rect (at 0.75 0 180) (size 0.5 0.9) (layers Front F.Paste F.Mask)
      (net 5 /ID))
    (model Resistors_SMD.3dshapes/R_0603.wrl
      (at (xyz 0 0 0))
      (scale (xyz 1 1 1))
      (rotate (xyz 0 0 0))
    )
  )

  (module Local:USB_Mini-B (layer Front) (tedit 56A1FAEF) (tstamp 56A1EEBC)
    (at 149.86 107.95)
    (path /56A1EBB5)
    (fp_text reference P2 (at -4.75 -1) (layer F.SilkS)
      (effects (font (size 1 1) (thickness 0.15)))
    )
    (fp_text value USB_OTG (at 0 2) (layer F.SilkS) hide
      (effects (font (size 1 1) (thickness 0.15)))
    )
    (fp_line (start 3.85064 -5.00126) (end -3.85064 -5.00126) (layer F.SilkS) (width 0.15))
    (fp_line (start 3.85064 3.8005) (end -3.85064 3.8005) (layer F.SilkS) (width 0.15))
    (fp_line (start 3.85064 3.8005) (end 3.85064 -5.00126) (layer F.SilkS) (width 0.15))
    (fp_line (start -3.85064 3.8005) (end -3.85064 -5.00126) (layer F.SilkS) (width 0.15))
    (fp_circle (center -2.20218 -1.24968) (end -1.7526 -1.24968) (layer F.SilkS) (width 0.15))
    (fp_circle (center 2.1971 -1.24968) (end 2.64668 -1.19888) (layer F.SilkS) (width 0.15))
    (pad 1 smd rect (at -1.6002 -3.85064) (size 0.50038 2.30124) (layers Front F.Paste F.Mask)
      (net 2 +5V))
    (pad 2 smd rect (at -0.8001 -3.85064) (size 0.50038 2.30124) (layers Front F.Paste F.Mask)
      (net 3 /D-))
    (pad 3 smd rect (at 0 -3.85064) (size 0.50038 2.30124) (layers Front F.Paste F.Mask)
      (net 4 /D+))
    (pad 4 smd rect (at 0.8001 -3.85064) (size 0.50038 2.30124) (layers Front F.Paste F.Mask)
      (net 5 /ID))
    (pad 5 smd rect (at 1.6002 -3.85064) (size 0.50038 2.30124) (layers Front F.Paste F.Mask)
      (net 1 GND))
    (pad 6 smd rect (at -4.45008 -3.74904) (size 1.99898 2.49936) (layers Front F.Paste F.Mask)
      (net 1 GND))
    (pad 6 smd rect (at 4.45008 -3.74904) (size 1.99898 2.49936) (layers Front F.Paste F.Mask)
      (net 1 GND))
    (pad 6 smd rect (at -4.35102 1.75006) (size 1.99898 2.49936) (layers Front F.Paste F.Mask)
      (net 1 GND))
    (pad 6 smd rect (at 4.45008 1.75006) (size 1.99898 2.49936) (layers Front F.Paste F.Mask)
      (net 1 GND))
    (pad 6 thru_hole circle (at -2.19964 -1.24968) (size 1.00076 1.00076) (drill 0.50038) (layers *.Cu)
      (net 1 GND) (zone_connect 2))
    (pad 6 thru_hole circle (at 2.19456 -1.24968) (size 1.00076 1.00076) (drill 0.50038) (layers *.Cu)
      (net 1 GND) (zone_connect 2))
  )

  (gr_line (start 116.84 111.76) (end 116.84 93.98) (angle 90) (layer Edge.Cuts) (width 0.2))
  (gr_line (start 132.08 111.76) (end 116.84 111.76) (angle 90) (layer Edge.Cuts) (width 0.2))
  (gr_line (start 132.08 93.98) (end 132.08 111.76) (angle 90) (layer Edge.Cuts) (width 0.2))
  (gr_line (start 116.84 93.98) (end 132.08 93.98) (angle 90) (layer Edge.Cuts) (width 0.2))
  (gr_line (start 142.24 111.76) (end 142.24 93.98) (angle 90) (layer Edge.Cuts) (width 0.2))
  (gr_line (start 157.48 111.76) (end 142.24 111.76) (angle 90) (layer Edge.Cuts) (width 0.2))
  (gr_line (start 157.48 93.98) (end 157.48 111.76) (angle 90) (layer Edge.Cuts) (width 0.2))
  (gr_line (start 142.24 93.98) (end 157.48 93.98) (angle 90) (layer Edge.Cuts) (width 0.2))

  (segment (start 145.40992 104.20096) (end 145.40992 103.1494) (width 0.43688) (layer Front) (net 1))
  (segment (start 154.31008 104.20096) (end 154.31008 103.1494) (width 0.43688) (layer Front) (net 1))
  (segment (start 123.1591 106.38746) (end 123.1591 102.5851) (width 0.38) (layer Front) (net 2))
  (segment (start 124.206 94.996) (end 125.73 96.52) (width 0.38) (layer Front) (net 2) (tstamp 56A1F518))
  (segment (start 122.428 94.996) (end 124.206 94.996) (width 0.38) (layer Front) (net 2) (tstamp 56A1F515))
  (segment (start 120.777 96.647) (end 122.428 94.996) (width 0.38) (layer Front) (net 2) (tstamp 56A1F513))
  (segment (start 120.777 100.203) (end 120.777 96.647) (width 0.38) (layer Front) (net 2) (tstamp 56A1F512))
  (segment (start 123.1591 102.5851) (end 120.777 100.203) (width 0.38) (layer Front) (net 2) (tstamp 56A1F510))
  (segment (start 148.2598 104.09936) (end 148.2598 102.5398) (width 0.43688) (layer Front) (net 2))
  (segment (start 149.352 94.742) (end 151.13 96.52) (width 0.43688) (layer Front) (net 2) (tstamp 56A1EFE3))
  (segment (start 147.828 94.742) (end 149.352 94.742) (width 0.43688) (layer Front) (net 2) (tstamp 56A1EFE2))
  (segment (start 145.923 96.647) (end 147.828 94.742) (width 0.43688) (layer Front) (net 2) (tstamp 56A1EFE1))
  (segment (start 145.923 100.203) (end 145.923 96.647) (width 0.43688) (layer Front) (net 2) (tstamp 56A1EFDF))
  (segment (start 148.2598 102.5398) (end 145.923 100.203) (width 0.43688) (layer Front) (net 2) (tstamp 56A1EFDE))
  (segment (start 123.8091 106.38746) (end 123.8091 102.2191) (width 0.38) (layer Front) (net 3))
  (segment (start 121.412 98.298) (end 123.19 96.52) (width 0.38) (layer Front) (net 3) (tstamp 56A1F504))
  (segment (start 121.412 99.822) (end 121.412 98.298) (width 0.38) (layer Front) (net 3) (tstamp 56A1F503))
  (segment (start 123.8091 102.2191) (end 121.412 99.822) (width 0.38) (layer Front) (net 3) (tstamp 56A1F501))
  (segment (start 149.0599 104.09936) (end 149.0599 102.0699) (width 0.43688) (layer Front) (net 3))
  (segment (start 146.812 98.298) (end 148.59 96.52) (width 0.43688) (layer Front) (net 3) (tstamp 56A1EFDB))
  (segment (start 146.812 99.822) (end 146.812 98.298) (width 0.43688) (layer Front) (net 3) (tstamp 56A1EFDA))
  (segment (start 149.0599 102.0699) (end 146.812 99.822) (width 0.43688) (layer Front) (net 3) (tstamp 56A1EFD9))
  (segment (start 124.4591 106.38746) (end 124.4591 100.3291) (width 0.38) (layer Front) (net 4))
  (segment (start 124.4591 100.3291) (end 123.19 99.06) (width 0.38) (layer Front) (net 4) (tstamp 56A1F4FE))
  (segment (start 149.86 104.09936) (end 149.86 100.33) (width 0.43688) (layer Front) (net 4))
  (segment (start 149.86 100.33) (end 148.59 99.06) (width 0.43688) (layer Front) (net 4) (tstamp 56A1EFD6))
  (segment (start 125.1091 106.38746) (end 125.1091 105.5229) (width 0.38) (layer Front) (net 5))
  (segment (start 125.234 105.398) (end 125.234 102.87) (width 0.38) (layer Front) (net 5) (tstamp 56A1F4FB))
  (segment (start 125.1091 105.5229) (end 125.234 105.398) (width 0.38) (layer Front) (net 5) (tstamp 56A1F4F8))
  (segment (start 125.2361 102.8721) (end 125.234 102.87) (width 0.38) (layer Front) (net 5) (tstamp 56A1F4DE) (status 30))
  (segment (start 150.6601 104.09936) (end 150.6601 101.1181) (width 0.43688) (layer Front) (net 5))
  (segment (start 150.6601 101.1181) (end 150.634 101.092) (width 0.43688) (layer Front) (net 5) (tstamp 56A1EFD3))

  (zone (net 1) (net_name GND) (layer Front) (tstamp 56A1EFE9) (hatch edge 0.508)
    (connect_pads (clearance 0.254))
    (min_thickness 0.254)
    (fill yes (arc_segments 16) (thermal_gap 0.254) (thermal_bridge_width 0.508))
    (polygon
      (pts
        (xy 142.24 93.98) (xy 157.48 93.98) (xy 157.48 111.76) (xy 142.24 111.76)
      )
    )
    (filled_polygon
      (pts
        (xy 145.499132 96.223132) (xy 145.36919 96.417604) (xy 145.32356 96.647) (xy 145.32356 100.203) (xy 145.36919 100.432396)
        (xy 145.454048 100.559395) (xy 145.499132 100.626868) (xy 147.659106 102.786842) (xy 147.651751 102.797606) (xy 147.621146 102.94874)
        (xy 147.621146 105.24998) (xy 147.647713 105.39117) (xy 147.731156 105.520845) (xy 147.858476 105.607839) (xy 148.00961 105.638444)
        (xy 148.50999 105.638444) (xy 148.65118 105.611877) (xy 148.658032 105.607468) (xy 148.658576 105.607839) (xy 148.80971 105.638444)
        (xy 149.31009 105.638444) (xy 149.45128 105.611877) (xy 149.458132 105.607468) (xy 149.458676 105.607839) (xy 149.60981 105.638444)
        (xy 150.11019 105.638444) (xy 150.25138 105.611877) (xy 150.258232 105.607468) (xy 150.258776 105.607839) (xy 150.40991 105.638444)
        (xy 150.91029 105.638444) (xy 151.05148 105.611877) (xy 151.065823 105.602647) (xy 151.134224 105.63098) (xy 151.239855 105.63098)
        (xy 151.335105 105.53573) (xy 151.335105 104.22636) (xy 151.585295 104.22636) (xy 151.585295 105.53573) (xy 151.680545 105.63098)
        (xy 151.786176 105.63098) (xy 151.92621 105.572976) (xy 152.033386 105.465799) (xy 152.09139 105.325765) (xy 152.09139 104.42321)
        (xy 152.92959 104.42321) (xy 152.92959 105.526425) (xy 152.987594 105.666459) (xy 153.09477 105.773636) (xy 153.234804 105.83164)
        (xy 154.08783 105.83164) (xy 154.18308 105.73639) (xy 154.18308 104.32796) (xy 154.43708 104.32796) (xy 154.43708 105.73639)
        (xy 154.53233 105.83164) (xy 155.385356 105.83164) (xy 155.52539 105.773636) (xy 155.632566 105.666459) (xy 155.69057 105.526425)
        (xy 155.69057 104.42321) (xy 155.59532 104.32796) (xy 154.43708 104.32796) (xy 154.18308 104.32796) (xy 153.02484 104.32796)
        (xy 152.92959 104.42321) (xy 152.09139 104.42321) (xy 152.09139 104.32161) (xy 151.99614 104.22636) (xy 151.585295 104.22636)
        (xy 151.335105 104.22636) (xy 151.3132 104.22636) (xy 151.3132 103.97236) (xy 151.335105 103.97236) (xy 151.335105 102.66299)
        (xy 151.585295 102.66299) (xy 151.585295 103.97236) (xy 151.99614 103.97236) (xy 152.09139 103.87711) (xy 152.09139 102.875495)
        (xy 152.92959 102.875495) (xy 152.92959 103.97871) (xy 153.02484 104.07396) (xy 154.18308 104.07396) (xy 154.18308 102.66553)
        (xy 154.08783 102.57028) (xy 153.234804 102.57028) (xy 153.09477 102.628284) (xy 152.987594 102.735461) (xy 152.92959 102.875495)
        (xy 152.09139 102.875495) (xy 152.09139 102.872955) (xy 152.033386 102.732921) (xy 151.92621 102.625744) (xy 151.786176 102.56774)
        (xy 151.680545 102.56774) (xy 151.585295 102.66299) (xy 151.335105 102.66299) (xy 151.25954 102.587425) (xy 151.25954 101.605821)
        (xy 151.272464 101.542) (xy 151.272464 101.31425) (xy 151.503 101.31425) (xy 151.503 101.617785) (xy 151.561004 101.757819)
        (xy 151.66818 101.864996) (xy 151.808214 101.923) (xy 151.91375 101.923) (xy 152.009 101.82775) (xy 152.009 101.219)
        (xy 152.259 101.219) (xy 152.259 101.82775) (xy 152.35425 101.923) (xy 152.459786 101.923) (xy 152.59982 101.864996)
        (xy 152.706996 101.757819) (xy 152.765 101.617785) (xy 152.765 101.31425) (xy 152.66975 101.219) (xy 152.259 101.219)
        (xy 152.009 101.219) (xy 151.59825 101.219) (xy 151.503 101.31425) (xy 151.272464 101.31425) (xy 151.272464 100.642)
        (xy 151.245897 100.50081) (xy 151.20575 100.438419) (xy 151.474725 100.424667) (xy 151.624595 100.362589) (xy 151.561004 100.426181)
        (xy 151.503 100.566215) (xy 151.503 100.86975) (xy 151.59825 100.965) (xy 152.009 100.965) (xy 152.009 100.35625)
        (xy 152.259 100.35625) (xy 152.259 100.965) (xy 152.66975 100.965) (xy 152.765 100.86975) (xy 152.765 100.566215)
        (xy 152.706996 100.426181) (xy 152.59982 100.319004) (xy 152.459786 100.261) (xy 152.35425 100.261) (xy 152.259 100.35625)
        (xy 152.009 100.35625) (xy 151.91375 100.261) (xy 151.855659 100.261) (xy 151.963767 100.073372) (xy 151.13 99.239605)
        (xy 151.115858 99.253748) (xy 150.936253 99.074143) (xy 150.950395 99.06) (xy 151.309605 99.06) (xy 152.143372 99.893767)
        (xy 152.338723 99.781209) (xy 152.522709 99.263751) (xy 152.494667 98.715275) (xy 152.338723 98.338791) (xy 152.143372 98.226233)
        (xy 151.309605 99.06) (xy 150.950395 99.06) (xy 150.116628 98.226233) (xy 149.921277 98.338791) (xy 149.858568 98.515158)
        (xy 149.761005 98.279037) (xy 149.373006 97.89036) (xy 149.131344 97.790014) (xy 149.370963 97.691005) (xy 149.75964 97.303006)
        (xy 149.859986 97.061344) (xy 149.958995 97.300963) (xy 150.346994 97.68964) (xy 150.572728 97.783372) (xy 150.408791 97.851277)
        (xy 150.296233 98.046628) (xy 151.13 98.880395) (xy 151.963767 98.046628) (xy 151.851209 97.851277) (xy 151.674842 97.788568)
        (xy 151.910963 97.691005) (xy 152.29964 97.303006) (xy 152.510249 96.795801) (xy 152.510729 96.246608) (xy 152.301005 95.739037)
        (xy 151.913006 95.35036) (xy 151.405801 95.139751) (xy 150.856608 95.139271) (xy 150.67291 95.215174) (xy 149.918736 94.461)
        (xy 156.999 94.461) (xy 156.999 100.280872) (xy 156.946893 100.332979) (xy 156.791441 100.101201) (xy 156.146934 99.858644)
        (xy 155.458665 99.881193) (xy 154.927519 100.101201) (xy 154.772066 100.332981) (xy 155.85948 101.420395) (xy 155.873623 101.406253)
        (xy 156.053228 101.585858) (xy 156.039085 101.6) (xy 156.053228 101.614143) (xy 155.873623 101.793748) (xy 155.85948 101.779605)
        (xy 155.845338 101.793748) (xy 155.665733 101.614143) (xy 155.679875 101.6) (xy 154.592461 100.512586) (xy 154.360681 100.668039)
        (xy 154.118124 101.312546) (xy 154.140673 102.000815) (xy 154.360681 102.531961) (xy 154.486358 102.616252) (xy 154.43708 102.66553)
        (xy 154.43708 104.07396) (xy 155.59532 104.07396) (xy 155.69057 103.97871) (xy 155.69057 103.337472) (xy 156.260295 103.318807)
        (xy 156.791441 103.098799) (xy 156.946893 102.867021) (xy 156.999 102.919128) (xy 156.999 111.279) (xy 155.510267 111.279)
        (xy 155.52539 111.272736) (xy 155.632566 111.165559) (xy 155.69057 111.025525) (xy 155.69057 109.92231) (xy 155.59532 109.82706)
        (xy 154.43708 109.82706) (xy 154.43708 109.84706) (xy 154.18308 109.84706) (xy 154.18308 109.82706) (xy 153.02484 109.82706)
        (xy 152.92959 109.92231) (xy 152.92959 111.025525) (xy 152.987594 111.165559) (xy 153.09477 111.272736) (xy 153.109893 111.279)
        (xy 146.709167 111.279) (xy 146.72429 111.272736) (xy 146.831466 111.165559) (xy 146.88947 111.025525) (xy 146.88947 109.92231)
        (xy 146.79422 109.82706) (xy 145.63598 109.82706) (xy 145.63598 109.84706) (xy 145.38198 109.84706) (xy 145.38198 109.82706)
        (xy 144.22374 109.82706) (xy 144.12849 109.92231) (xy 144.12849 111.025525) (xy 144.186494 111.165559) (xy 144.29367 111.272736)
        (xy 144.308793 111.279) (xy 142.721 111.279) (xy 142.721 108.374595) (xy 144.12849 108.374595) (xy 144.12849 109.47781)
        (xy 144.22374 109.57306) (xy 145.38198 109.57306) (xy 145.38198 108.16463) (xy 145.63598 108.16463) (xy 145.63598 109.57306)
        (xy 146.79422 109.57306) (xy 146.88947 109.47781) (xy 146.88947 108.374595) (xy 152.92959 108.374595) (xy 152.92959 109.47781)
        (xy 153.02484 109.57306) (xy 154.18308 109.57306) (xy 154.18308 108.16463) (xy 154.43708 108.16463) (xy 154.43708 109.57306)
        (xy 155.59532 109.57306) (xy 155.69057 109.47781) (xy 155.69057 108.374595) (xy 155.632566 108.234561) (xy 155.52539 108.127384)
        (xy 155.385356 108.06938) (xy 154.53233 108.06938) (xy 154.43708 108.16463) (xy 154.18308 108.16463) (xy 154.08783 108.06938)
        (xy 153.234804 108.06938) (xy 153.09477 108.127384) (xy 152.987594 108.234561) (xy 152.92959 108.374595) (xy 146.88947 108.374595)
        (xy 146.831466 108.234561) (xy 146.72429 108.127384) (xy 146.584256 108.06938) (xy 145.73123 108.06938) (xy 145.63598 108.16463)
        (xy 145.38198 108.16463) (xy 145.28673 108.06938) (xy 144.433704 108.06938) (xy 144.29367 108.127384) (xy 144.186494 108.234561)
        (xy 144.12849 108.374595) (xy 142.721 108.374595) (xy 142.721 104.42321) (xy 144.02943 104.42321) (xy 144.02943 105.526425)
        (xy 144.087434 105.666459) (xy 144.19461 105.773636) (xy 144.334644 105.83164) (xy 145.18767 105.83164) (xy 145.28292 105.73639)
        (xy 145.28292 104.32796) (xy 145.53692 104.32796) (xy 145.53692 105.73639) (xy 145.63217 105.83164) (xy 146.485196 105.83164)
        (xy 146.62523 105.773636) (xy 146.732406 105.666459) (xy 146.79041 105.526425) (xy 146.79041 104.42321) (xy 146.69516 104.32796)
        (xy 145.53692 104.32796) (xy 145.28292 104.32796) (xy 144.12468 104.32796) (xy 144.02943 104.42321) (xy 142.721 104.42321)
        (xy 142.721 102.919128) (xy 142.773107 102.867021) (xy 142.928559 103.098799) (xy 143.573066 103.341356) (xy 144.02943 103.326405)
        (xy 144.02943 103.97871) (xy 144.12468 104.07396) (xy 145.28292 104.07396) (xy 145.28292 102.66553) (xy 145.53692 102.66553)
        (xy 145.53692 104.07396) (xy 146.69516 104.07396) (xy 146.79041 103.97871) (xy 146.79041 102.875495) (xy 146.732406 102.735461)
        (xy 146.62523 102.628284) (xy 146.485196 102.57028) (xy 145.63217 102.57028) (xy 145.53692 102.66553) (xy 145.28292 102.66553)
        (xy 145.233642 102.616252) (xy 145.359319 102.531961) (xy 145.601876 101.887454) (xy 145.579327 101.199185) (xy 145.359319 100.668039)
        (xy 145.127539 100.512586) (xy 144.040125 101.6) (xy 144.054268 101.614143) (xy 143.874663 101.793748) (xy 143.86052 101.779605)
        (xy 143.846378 101.793748) (xy 143.666773 101.614143) (xy 143.680915 101.6) (xy 143.666773 101.585858) (xy 143.846378 101.406253)
        (xy 143.86052 101.420395) (xy 144.947934 100.332981) (xy 144.792481 100.101201) (xy 144.147974 99.858644) (xy 143.459705 99.881193)
        (xy 142.928559 100.101201) (xy 142.773107 100.332979) (xy 142.721 100.280872) (xy 142.721 94.461) (xy 147.261264 94.461)
      )
    )
  )
  (zone (net 1) (net_name GND) (layer Back) (tstamp 56A1EFE9) (hatch edge 0.508)
    (connect_pads (clearance 0.254))
    (min_thickness 0.254)
    (fill yes (arc_segments 16) (thermal_gap 0.254) (thermal_bridge_width 0.508))
    (polygon
      (pts
        (xy 142.24 93.98) (xy 157.48 93.98) (xy 157.48 111.76) (xy 142.24 111.76)
      )
    )
    (filled_polygon
      (pts
        (xy 156.999 100.280872) (xy 156.946893 100.332979) (xy 156.791441 100.101201) (xy 156.146934 99.858644) (xy 155.458665 99.881193)
        (xy 154.927519 100.101201) (xy 154.772066 100.332981) (xy 155.85948 101.420395) (xy 155.873623 101.406253) (xy 156.053228 101.585858)
        (xy 156.039085 101.6) (xy 156.053228 101.614143) (xy 155.873623 101.793748) (xy 155.85948 101.779605) (xy 154.772066 102.867019)
        (xy 154.927519 103.098799) (xy 155.572026 103.341356) (xy 156.260295 103.318807) (xy 156.791441 103.098799) (xy 156.946893 102.867021)
        (xy 156.999 102.919128) (xy 156.999 111.279) (xy 142.721 111.279) (xy 142.721 102.919128) (xy 142.773107 102.867021)
        (xy 142.928559 103.098799) (xy 143.573066 103.341356) (xy 144.261335 103.318807) (xy 144.792481 103.098799) (xy 144.947934 102.867019)
        (xy 143.86052 101.779605) (xy 143.846378 101.793748) (xy 143.666773 101.614143) (xy 143.680915 101.6) (xy 144.040125 101.6)
        (xy 145.127539 102.687414) (xy 145.359319 102.531961) (xy 145.601876 101.887454) (xy 145.583041 101.312546) (xy 154.118124 101.312546)
        (xy 154.140673 102.000815) (xy 154.360681 102.531961) (xy 154.592461 102.687414) (xy 155.679875 101.6) (xy 154.592461 100.512586)
        (xy 154.360681 100.668039) (xy 154.118124 101.312546) (xy 145.583041 101.312546) (xy 145.579327 101.199185) (xy 145.359319 100.668039)
        (xy 145.127539 100.512586) (xy 144.040125 101.6) (xy 143.680915 101.6) (xy 143.666773 101.585858) (xy 143.846378 101.406253)
        (xy 143.86052 101.420395) (xy 144.947934 100.332981) (xy 144.792481 100.101201) (xy 144.147974 99.858644) (xy 143.459705 99.881193)
        (xy 142.928559 100.101201) (xy 142.773107 100.332979) (xy 142.721 100.280872) (xy 142.721 96.793392) (xy 147.209271 96.793392)
        (xy 147.418995 97.300963) (xy 147.806994 97.68964) (xy 148.048656 97.789986) (xy 147.809037 97.888995) (xy 147.42036 98.276994)
        (xy 147.209751 98.784199) (xy 147.209271 99.333392) (xy 147.418995 99.840963) (xy 147.806994 100.22964) (xy 148.314199 100.440249)
        (xy 148.863392 100.440729) (xy 149.370963 100.231005) (xy 149.528871 100.073372) (xy 150.296233 100.073372) (xy 150.408791 100.268723)
        (xy 150.926249 100.452709) (xy 151.474725 100.424667) (xy 151.851209 100.268723) (xy 151.963767 100.073372) (xy 151.13 99.239605)
        (xy 150.296233 100.073372) (xy 149.528871 100.073372) (xy 149.75964 99.843006) (xy 149.853372 99.617272) (xy 149.921277 99.781209)
        (xy 150.116628 99.893767) (xy 150.950395 99.06) (xy 151.309605 99.06) (xy 152.143372 99.893767) (xy 152.338723 99.781209)
        (xy 152.522709 99.263751) (xy 152.494667 98.715275) (xy 152.338723 98.338791) (xy 152.143372 98.226233) (xy 151.309605 99.06)
        (xy 150.950395 99.06) (xy 150.116628 98.226233) (xy 149.921277 98.338791) (xy 149.858568 98.515158) (xy 149.761005 98.279037)
        (xy 149.373006 97.89036) (xy 149.131344 97.790014) (xy 149.370963 97.691005) (xy 149.75964 97.303006) (xy 149.859986 97.061344)
        (xy 149.958995 97.300963) (xy 150.346994 97.68964) (xy 150.572728 97.783372) (xy 150.408791 97.851277) (xy 150.296233 98.046628)
        (xy 151.13 98.880395) (xy 151.963767 98.046628) (xy 151.851209 97.851277) (xy 151.674842 97.788568) (xy 151.910963 97.691005)
        (xy 152.29964 97.303006) (xy 152.510249 96.795801) (xy 152.510729 96.246608) (xy 152.301005 95.739037) (xy 151.913006 95.35036)
        (xy 151.405801 95.139751) (xy 150.856608 95.139271) (xy 150.349037 95.348995) (xy 149.96036 95.736994) (xy 149.860014 95.978656)
        (xy 149.761005 95.739037) (xy 149.373006 95.35036) (xy 148.865801 95.139751) (xy 148.316608 95.139271) (xy 147.809037 95.348995)
        (xy 147.42036 95.736994) (xy 147.209751 96.244199) (xy 147.209271 96.793392) (xy 142.721 96.793392) (xy 142.721 94.461)
        (xy 156.999 94.461)
      )
    )
  )
  (zone (net 1) (net_name GND) (layer Front) (tstamp 56A1F566) (hatch edge 0.508)
    (connect_pads (clearance 0.254))
    (min_thickness 0.254)
    (fill yes (arc_segments 16) (thermal_gap 0.254) (thermal_bridge_width 0.508))
    (polygon
      (pts
        (xy 116.84 93.98) (xy 132.08 93.98) (xy 132.08 111.76) (xy 116.84 111.76)
      )
    )
    (filled_polygon
      (pts
        (xy 122.209488 94.468465) (xy 122.024242 94.592242) (xy 120.373242 96.243242) (xy 120.249465 96.428488) (xy 120.206 96.647)
        (xy 120.206 100.203) (xy 120.249465 100.421512) (xy 120.373242 100.606758) (xy 122.5881 102.821616) (xy 122.5881 105.626219)
        (xy 122.570636 105.71246) (xy 122.570636 106.256053) (xy 122.435457 106.210261) (xy 122.301 106.298549) (xy 122.301 106.934)
        (xy 122.321 106.934) (xy 122.321 107.188) (xy 122.301 107.188) (xy 122.301 107.823451) (xy 122.435457 107.911739)
        (xy 122.752537 107.804328) (xy 123.004376 107.583752) (xy 123.072503 107.450924) (xy 123.3591 107.450924) (xy 123.488688 107.42654)
        (xy 123.6091 107.450924) (xy 124.0091 107.450924) (xy 124.138688 107.42654) (xy 124.2591 107.450924) (xy 124.6591 107.450924)
        (xy 124.788688 107.42654) (xy 124.9091 107.450924) (xy 125.3091 107.450924) (xy 125.441286 107.426051) (xy 125.483315 107.44346)
        (xy 125.56385 107.44346) (xy 125.6591 107.34821) (xy 125.6591 107.225096) (xy 125.666959 107.213594) (xy 125.697564 107.06246)
        (xy 125.697564 106.24046) (xy 125.8591 106.24046) (xy 125.8591 106.26046) (xy 125.9061 106.26046) (xy 125.9061 106.51446)
        (xy 125.8591 106.51446) (xy 125.8591 106.648454) (xy 125.779763 106.803138) (xy 125.845926 106.934) (xy 125.8591 106.934)
        (xy 125.8591 107.188) (xy 125.845926 107.188) (xy 125.779763 107.318862) (xy 125.915624 107.583752) (xy 126.167463 107.804328)
        (xy 126.484543 107.911739) (xy 126.619 107.823451) (xy 126.619 107.188) (xy 126.873 107.188) (xy 126.873 107.823451)
        (xy 127.007457 107.911739) (xy 127.324537 107.804328) (xy 127.576376 107.583752) (xy 127.712237 107.318862) (xy 127.646074 107.188)
        (xy 126.873 107.188) (xy 126.619 107.188) (xy 126.319491 107.188) (xy 126.3401 107.138246) (xy 126.3401 106.934)
        (xy 126.619 106.934) (xy 126.619 106.298549) (xy 126.873 106.298549) (xy 126.873 106.934) (xy 127.646074 106.934)
        (xy 127.712237 106.803138) (xy 127.683251 106.746623) (xy 127.754184 106.780198) (xy 127.889 106.714419) (xy 127.889 105.791)
        (xy 128.143 105.791) (xy 128.143 106.714419) (xy 128.277816 106.780198) (xy 128.549158 106.651764) (xy 128.781337 106.393477)
        (xy 128.897 106.066) (xy 128.897 105.791) (xy 128.143 105.791) (xy 127.889 105.791) (xy 127.135 105.791)
        (xy 127.135 106.066) (xy 127.210211 106.278944) (xy 127.007457 106.210261) (xy 126.873 106.298549) (xy 126.619 106.298549)
        (xy 126.484543 106.210261) (xy 126.33636 106.260458) (xy 126.244852 106.260458) (xy 126.3401 106.16521) (xy 126.3401 105.636674)
        (xy 126.282096 105.49664) (xy 126.174919 105.389464) (xy 126.034885 105.33146) (xy 125.95435 105.33146) (xy 125.886102 105.399708)
        (xy 125.886102 105.33146) (xy 125.805 105.33146) (xy 125.805 105.262) (xy 127.135 105.262) (xy 127.135 105.537)
        (xy 127.889 105.537) (xy 127.889 104.613581) (xy 128.143 104.613581) (xy 128.143 105.537) (xy 128.897 105.537)
        (xy 128.897 105.262) (xy 128.781337 104.934523) (xy 128.549158 104.676236) (xy 128.277816 104.547802) (xy 128.143 104.613581)
        (xy 127.889 104.613581) (xy 127.754184 104.547802) (xy 127.482842 104.676236) (xy 127.250663 104.934523) (xy 127.135 105.262)
        (xy 125.805 105.262) (xy 125.805 103.525079) (xy 125.841859 103.471134) (xy 125.872464 103.32) (xy 125.872464 103.09225)
        (xy 126.103 103.09225) (xy 126.103 103.395785) (xy 126.161004 103.535819) (xy 126.26818 103.642996) (xy 126.408214 103.701)
        (xy 126.51375 103.701) (xy 126.609 103.60575) (xy 126.609 102.997) (xy 126.859 102.997) (xy 126.859 103.60575)
        (xy 126.95425 103.701) (xy 127.059786 103.701) (xy 127.19982 103.642996) (xy 127.306996 103.535819) (xy 127.365 103.395785)
        (xy 127.365 103.09225) (xy 127.26975 102.997) (xy 126.859 102.997) (xy 126.609 102.997) (xy 126.19825 102.997)
        (xy 126.103 103.09225) (xy 125.872464 103.09225) (xy 125.872464 102.42) (xy 125.858204 102.344215) (xy 126.103 102.344215)
        (xy 126.103 102.64775) (xy 126.19825 102.743) (xy 126.609 102.743) (xy 126.609 102.13425) (xy 126.859 102.13425)
        (xy 126.859 102.743) (xy 127.26975 102.743) (xy 127.365 102.64775) (xy 127.365 102.344215) (xy 127.306996 102.204181)
        (xy 127.19982 102.097004) (xy 127.059786 102.039) (xy 126.95425 102.039) (xy 126.859 102.13425) (xy 126.609 102.13425)
        (xy 126.51375 102.039) (xy 126.408214 102.039) (xy 126.26818 102.097004) (xy 126.161004 102.204181) (xy 126.103 102.344215)
        (xy 125.858204 102.344215) (xy 125.845897 102.27881) (xy 125.762454 102.149135) (xy 125.635134 102.062141) (xy 125.484 102.031536)
        (xy 125.0301 102.031536) (xy 125.0301 101.312546) (xy 128.718124 101.312546) (xy 128.740673 102.000815) (xy 128.960681 102.531961)
        (xy 129.192461 102.687414) (xy 130.279875 101.6) (xy 129.192461 100.512586) (xy 128.960681 100.668039) (xy 128.718124 101.312546)
        (xy 125.0301 101.312546) (xy 125.0301 100.3291) (xy 125.018798 100.272281) (xy 125.526249 100.452709) (xy 126.074725 100.424667)
        (xy 126.451209 100.268723) (xy 126.563767 100.073372) (xy 125.73 99.239605) (xy 125.715858 99.253748) (xy 125.536253 99.074143)
        (xy 125.550395 99.06) (xy 125.909605 99.06) (xy 126.743372 99.893767) (xy 126.938723 99.781209) (xy 127.122709 99.263751)
        (xy 127.094667 98.715275) (xy 126.938723 98.338791) (xy 126.743372 98.226233) (xy 125.909605 99.06) (xy 125.550395 99.06)
        (xy 124.716628 98.226233) (xy 124.521277 98.338791) (xy 124.458568 98.515158) (xy 124.361005 98.279037) (xy 123.973006 97.89036)
        (xy 123.731344 97.790014) (xy 123.970963 97.691005) (xy 124.35964 97.303006) (xy 124.459986 97.061344) (xy 124.558995 97.300963)
        (xy 124.946994 97.68964) (xy 125.172728 97.783372) (xy 125.008791 97.851277) (xy 124.896233 98.046628) (xy 125.73 98.880395)
        (xy 126.563767 98.046628) (xy 126.451209 97.851277) (xy 126.274842 97.788568) (xy 126.510963 97.691005) (xy 126.89964 97.303006)
        (xy 127.110249 96.795801) (xy 127.110729 96.246608) (xy 126.901005 95.739037) (xy 126.513006 95.35036) (xy 126.005801 95.139751)
        (xy 125.456608 95.139271) (xy 125.244449 95.226933) (xy 124.609758 94.592242) (xy 124.424512 94.468465) (xy 124.386983 94.461)
        (xy 131.599 94.461) (xy 131.599 100.280872) (xy 131.546893 100.332979) (xy 131.391441 100.101201) (xy 130.746934 99.858644)
        (xy 130.058665 99.881193) (xy 129.527519 100.101201) (xy 129.372066 100.332981) (xy 130.45948 101.420395) (xy 130.473623 101.406253)
        (xy 130.653228 101.585858) (xy 130.639085 101.6) (xy 130.653228 101.614143) (xy 130.473623 101.793748) (xy 130.45948 101.779605)
        (xy 129.372066 102.867019) (xy 129.527519 103.098799) (xy 130.172026 103.341356) (xy 130.860295 103.318807) (xy 131.391441 103.098799)
        (xy 131.546893 102.867021) (xy 131.599 102.919128) (xy 131.599 111.279) (xy 117.321 111.279) (xy 117.321 109.093)
        (xy 120.023 109.093) (xy 120.023 109.368) (xy 120.138663 109.695477) (xy 120.370842 109.953764) (xy 120.642184 110.082198)
        (xy 120.777 110.016419) (xy 120.777 109.093) (xy 121.031 109.093) (xy 121.031 110.016419) (xy 121.165816 110.082198)
        (xy 121.437158 109.953764) (xy 121.669337 109.695477) (xy 121.785 109.368) (xy 121.785 109.093) (xy 127.135 109.093)
        (xy 127.135 109.368) (xy 127.250663 109.695477) (xy 127.482842 109.953764) (xy 127.754184 110.082198) (xy 127.889 110.016419)
        (xy 127.889 109.093) (xy 128.143 109.093) (xy 128.143 110.016419) (xy 128.277816 110.082198) (xy 128.549158 109.953764)
        (xy 128.781337 109.695477) (xy 128.897 109.368) (xy 128.897 109.093) (xy 128.143 109.093) (xy 127.889 109.093)
        (xy 127.135 109.093) (xy 121.785 109.093) (xy 121.031 109.093) (xy 120.777 109.093) (xy 120.023 109.093)
        (xy 117.321 109.093) (xy 117.321 108.564) (xy 120.023 108.564) (xy 120.023 108.839) (xy 120.777 108.839)
        (xy 120.777 107.915581) (xy 121.031 107.915581) (xy 121.031 108.839) (xy 121.785 108.839) (xy 121.785 108.564)
        (xy 127.135 108.564) (xy 127.135 108.839) (xy 127.889 108.839) (xy 127.889 107.915581) (xy 128.143 107.915581)
        (xy 128.143 108.839) (xy 128.897 108.839) (xy 128.897 108.564) (xy 128.781337 108.236523) (xy 128.549158 107.978236)
        (xy 128.277816 107.849802) (xy 128.143 107.915581) (xy 127.889 107.915581) (xy 127.754184 107.849802) (xy 127.482842 107.978236)
        (xy 127.250663 108.236523) (xy 127.135 108.564) (xy 121.785 108.564) (xy 121.669337 108.236523) (xy 121.437158 107.978236)
        (xy 121.165816 107.849802) (xy 121.031 107.915581) (xy 120.777 107.915581) (xy 120.642184 107.849802) (xy 120.370842 107.978236)
        (xy 120.138663 108.236523) (xy 120.023 108.564) (xy 117.321 108.564) (xy 117.321 107.318862) (xy 121.207763 107.318862)
        (xy 121.343624 107.583752) (xy 121.595463 107.804328) (xy 121.912543 107.911739) (xy 122.047 107.823451) (xy 122.047 107.188)
        (xy 121.273926 107.188) (xy 121.207763 107.318862) (xy 117.321 107.318862) (xy 117.321 105.791) (xy 120.023 105.791)
        (xy 120.023 106.066) (xy 120.138663 106.393477) (xy 120.370842 106.651764) (xy 120.642184 106.780198) (xy 120.777 106.714419)
        (xy 120.777 105.791) (xy 121.031 105.791) (xy 121.031 106.714419) (xy 121.165816 106.780198) (xy 121.236749 106.746623)
        (xy 121.207763 106.803138) (xy 121.273926 106.934) (xy 122.047 106.934) (xy 122.047 106.298549) (xy 121.912543 106.210261)
        (xy 121.709789 106.278944) (xy 121.785 106.066) (xy 121.785 105.791) (xy 121.031 105.791) (xy 120.777 105.791)
        (xy 120.023 105.791) (xy 117.321 105.791) (xy 117.321 105.262) (xy 120.023 105.262) (xy 120.023 105.537)
        (xy 120.777 105.537) (xy 120.777 104.613581) (xy 121.031 104.613581) (xy 121.031 105.537) (xy 121.785 105.537)
        (xy 121.785 105.262) (xy 121.669337 104.934523) (xy 121.437158 104.676236) (xy 121.165816 104.547802) (xy 121.031 104.613581)
        (xy 120.777 104.613581) (xy 120.642184 104.547802) (xy 120.370842 104.676236) (xy 120.138663 104.934523) (xy 120.023 105.262)
        (xy 117.321 105.262) (xy 117.321 102.919128) (xy 117.373107 102.867021) (xy 117.528559 103.098799) (xy 118.173066 103.341356)
        (xy 118.861335 103.318807) (xy 119.392481 103.098799) (xy 119.547934 102.867019) (xy 118.46052 101.779605) (xy 118.446378 101.793748)
        (xy 118.266773 101.614143) (xy 118.280915 101.6) (xy 118.640125 101.6) (xy 119.727539 102.687414) (xy 119.959319 102.531961)
        (xy 120.201876 101.887454) (xy 120.179327 101.199185) (xy 119.959319 100.668039) (xy 119.727539 100.512586) (xy 118.640125 101.6)
        (xy 118.280915 101.6) (xy 118.266773 101.585858) (xy 118.446378 101.406253) (xy 118.46052 101.420395) (xy 119.547934 100.332981)
        (xy 119.392481 100.101201) (xy 118.747974 99.858644) (xy 118.059705 99.881193) (xy 117.528559 100.101201) (xy 117.373107 100.332979)
        (xy 117.321 100.280872) (xy 117.321 94.461) (xy 122.247017 94.461)
      )
    )
  )
  (zone (net 1) (net_name GND) (layer Back) (tstamp 56A1F566) (hatch edge 0.508)
    (connect_pads (clearance 0.254))
    (min_thickness 0.254)
    (fill yes (arc_segments 16) (thermal_gap 0.254) (thermal_bridge_width 0.508))
    (polygon
      (pts
        (xy 116.84 93.98) (xy 132.08 93.98) (xy 132.08 111.76) (xy 116.84 111.76)
      )
    )
    (filled_polygon
      (pts
        (xy 131.599 100.280872) (xy 131.546893 100.332979) (xy 131.391441 100.101201) (xy 130.746934 99.858644) (xy 130.058665 99.881193)
        (xy 129.527519 100.101201) (xy 129.372066 100.332981) (xy 130.45948 101.420395) (xy 130.473623 101.406253) (xy 130.653228 101.585858)
        (xy 130.639085 101.6) (xy 130.653228 101.614143) (xy 130.473623 101.793748) (xy 130.45948 101.779605) (xy 129.372066 102.867019)
        (xy 129.527519 103.098799) (xy 130.172026 103.341356) (xy 130.860295 103.318807) (xy 131.391441 103.098799) (xy 131.546893 102.867021)
        (xy 131.599 102.919128) (xy 131.599 111.279) (xy 117.321 111.279) (xy 117.321 109.093) (xy 120.023 109.093)
        (xy 120.023 109.368) (xy 120.138663 109.695477) (xy 120.370842 109.953764) (xy 120.642184 110.082198) (xy 120.777 110.016419)
        (xy 120.777 109.093) (xy 121.031 109.093) (xy 121.031 110.016419) (xy 121.165816 110.082198) (xy 121.437158 109.953764)
        (xy 121.669337 109.695477) (xy 121.785 109.368) (xy 121.785 109.093) (xy 127.135 109.093) (xy 127.135 109.368)
        (xy 127.250663 109.695477) (xy 127.482842 109.953764) (xy 127.754184 110.082198) (xy 127.889 110.016419) (xy 127.889 109.093)
        (xy 128.143 109.093) (xy 128.143 110.016419) (xy 128.277816 110.082198) (xy 128.549158 109.953764) (xy 128.781337 109.695477)
        (xy 128.897 109.368) (xy 128.897 109.093) (xy 128.143 109.093) (xy 127.889 109.093) (xy 127.135 109.093)
        (xy 121.785 109.093) (xy 121.031 109.093) (xy 120.777 109.093) (xy 120.023 109.093) (xy 117.321 109.093)
        (xy 117.321 108.564) (xy 120.023 108.564) (xy 120.023 108.839) (xy 120.777 108.839) (xy 120.777 107.915581)
        (xy 121.031 107.915581) (xy 121.031 108.839) (xy 121.785 108.839) (xy 121.785 108.564) (xy 127.135 108.564)
        (xy 127.135 108.839) (xy 127.889 108.839) (xy 127.889 107.915581) (xy 128.143 107.915581) (xy 128.143 108.839)
        (xy 128.897 108.839) (xy 128.897 108.564) (xy 128.781337 108.236523) (xy 128.549158 107.978236) (xy 128.277816 107.849802)
        (xy 128.143 107.915581) (xy 127.889 107.915581) (xy 127.754184 107.849802) (xy 127.482842 107.978236) (xy 127.250663 108.236523)
        (xy 127.135 108.564) (xy 121.785 108.564) (xy 121.669337 108.236523) (xy 121.437158 107.978236) (xy 121.165816 107.849802)
        (xy 121.031 107.915581) (xy 120.777 107.915581) (xy 120.642184 107.849802) (xy 120.370842 107.978236) (xy 120.138663 108.236523)
        (xy 120.023 108.564) (xy 117.321 108.564) (xy 117.321 107.318862) (xy 121.207763 107.318862) (xy 121.343624 107.583752)
        (xy 121.595463 107.804328) (xy 121.912543 107.911739) (xy 122.047 107.823451) (xy 122.047 107.188) (xy 122.301 107.188)
        (xy 122.301 107.823451) (xy 122.435457 107.911739) (xy 122.752537 107.804328) (xy 123.004376 107.583752) (xy 123.140237 107.318862)
        (xy 125.779763 107.318862) (xy 125.915624 107.583752) (xy 126.167463 107.804328) (xy 126.484543 107.911739) (xy 126.619 107.823451)
        (xy 126.619 107.188) (xy 126.873 107.188) (xy 126.873 107.823451) (xy 127.007457 107.911739) (xy 127.324537 107.804328)
        (xy 127.576376 107.583752) (xy 127.712237 107.318862) (xy 127.646074 107.188) (xy 126.873 107.188) (xy 126.619 107.188)
        (xy 125.845926 107.188) (xy 125.779763 107.318862) (xy 123.140237 107.318862) (xy 123.074074 107.188) (xy 122.301 107.188)
        (xy 122.047 107.188) (xy 121.273926 107.188) (xy 121.207763 107.318862) (xy 117.321 107.318862) (xy 117.321 105.791)
        (xy 120.023 105.791) (xy 120.023 106.066) (xy 120.138663 106.393477) (xy 120.370842 106.651764) (xy 120.642184 106.780198)
        (xy 120.777 106.714419) (xy 120.777 105.791) (xy 121.031 105.791) (xy 121.031 106.714419) (xy 121.165816 106.780198)
        (xy 121.236749 106.746623) (xy 121.207763 106.803138) (xy 121.273926 106.934) (xy 122.047 106.934) (xy 122.047 106.298549)
        (xy 122.301 106.298549) (xy 122.301 106.934) (xy 123.074074 106.934) (xy 123.140237 106.803138) (xy 125.779763 106.803138)
        (xy 125.845926 106.934) (xy 126.619 106.934) (xy 126.619 106.298549) (xy 126.873 106.298549) (xy 126.873 106.934)
        (xy 127.646074 106.934) (xy 127.712237 106.803138) (xy 127.683251 106.746623) (xy 127.754184 106.780198) (xy 127.889 106.714419)
        (xy 127.889 105.791) (xy 128.143 105.791) (xy 128.143 106.714419) (xy 128.277816 106.780198) (xy 128.549158 106.651764)
        (xy 128.781337 106.393477) (xy 128.897 106.066) (xy 128.897 105.791) (xy 128.143 105.791) (xy 127.889 105.791)
        (xy 127.135 105.791) (xy 127.135 106.066) (xy 127.210211 106.278944) (xy 127.007457 106.210261) (xy 126.873 106.298549)
        (xy 126.619 106.298549) (xy 126.484543 106.210261) (xy 126.167463 106.317672) (xy 125.915624 106.538248) (xy 125.779763 106.803138)
        (xy 123.140237 106.803138) (xy 123.004376 106.538248) (xy 122.752537 106.317672) (xy 122.435457 106.210261) (xy 122.301 106.298549)
        (xy 122.047 106.298549) (xy 121.912543 106.210261) (xy 121.709789 106.278944) (xy 121.785 106.066) (xy 121.785 105.791)
        (xy 121.031 105.791) (xy 120.777 105.791) (xy 120.023 105.791) (xy 117.321 105.791) (xy 117.321 105.262)
        (xy 120.023 105.262) (xy 120.023 105.537) (xy 120.777 105.537) (xy 120.777 104.613581) (xy 121.031 104.613581)
        (xy 121.031 105.537) (xy 121.785 105.537) (xy 121.785 105.262) (xy 127.135 105.262) (xy 127.135 105.537)
        (xy 127.889 105.537) (xy 127.889 104.613581) (xy 128.143 104.613581) (xy 128.143 105.537) (xy 128.897 105.537)
        (xy 128.897 105.262) (xy 128.781337 104.934523) (xy 128.549158 104.676236) (xy 128.277816 104.547802) (xy 128.143 104.613581)
        (xy 127.889 104.613581) (xy 127.754184 104.547802) (xy 127.482842 104.676236) (xy 127.250663 104.934523) (xy 127.135 105.262)
        (xy 121.785 105.262) (xy 121.669337 104.934523) (xy 121.437158 104.676236) (xy 121.165816 104.547802) (xy 121.031 104.613581)
        (xy 120.777 104.613581) (xy 120.642184 104.547802) (xy 120.370842 104.676236) (xy 120.138663 104.934523) (xy 120.023 105.262)
        (xy 117.321 105.262) (xy 117.321 102.919128) (xy 117.373107 102.867021) (xy 117.528559 103.098799) (xy 118.173066 103.341356)
        (xy 118.861335 103.318807) (xy 119.392481 103.098799) (xy 119.547934 102.867019) (xy 118.46052 101.779605) (xy 118.446378 101.793748)
        (xy 118.266773 101.614143) (xy 118.280915 101.6) (xy 118.640125 101.6) (xy 119.727539 102.687414) (xy 119.959319 102.531961)
        (xy 120.201876 101.887454) (xy 120.183041 101.312546) (xy 128.718124 101.312546) (xy 128.740673 102.000815) (xy 128.960681 102.531961)
        (xy 129.192461 102.687414) (xy 130.279875 101.6) (xy 129.192461 100.512586) (xy 128.960681 100.668039) (xy 128.718124 101.312546)
        (xy 120.183041 101.312546) (xy 120.179327 101.199185) (xy 119.959319 100.668039) (xy 119.727539 100.512586) (xy 118.640125 101.6)
        (xy 118.280915 101.6) (xy 118.266773 101.585858) (xy 118.446378 101.406253) (xy 118.46052 101.420395) (xy 119.547934 100.332981)
        (xy 119.392481 100.101201) (xy 118.747974 99.858644) (xy 118.059705 99.881193) (xy 117.528559 100.101201) (xy 117.373107 100.332979)
        (xy 117.321 100.280872) (xy 117.321 96.793392) (xy 121.809271 96.793392) (xy 122.018995 97.300963) (xy 122.406994 97.68964)
        (xy 122.648656 97.789986) (xy 122.409037 97.888995) (xy 122.02036 98.276994) (xy 121.809751 98.784199) (xy 121.809271 99.333392)
        (xy 122.018995 99.840963) (xy 122.406994 100.22964) (xy 122.914199 100.440249) (xy 123.463392 100.440729) (xy 123.970963 100.231005)
        (xy 124.128871 100.073372) (xy 124.896233 100.073372) (xy 125.008791 100.268723) (xy 125.526249 100.452709) (xy 126.074725 100.424667)
        (xy 126.451209 100.268723) (xy 126.563767 100.073372) (xy 125.73 99.239605) (xy 124.896233 100.073372) (xy 124.128871 100.073372)
        (xy 124.35964 99.843006) (xy 124.453372 99.617272) (xy 124.521277 99.781209) (xy 124.716628 99.893767) (xy 125.550395 99.06)
        (xy 125.909605 99.06) (xy 126.743372 99.893767) (xy 126.938723 99.781209) (xy 127.122709 99.263751) (xy 127.094667 98.715275)
        (xy 126.938723 98.338791) (xy 126.743372 98.226233) (xy 125.909605 99.06) (xy 125.550395 99.06) (xy 124.716628 98.226233)
        (xy 124.521277 98.338791) (xy 124.458568 98.515158) (xy 124.361005 98.279037) (xy 123.973006 97.89036) (xy 123.731344 97.790014)
        (xy 123.970963 97.691005) (xy 124.35964 97.303006) (xy 124.459986 97.061344) (xy 124.558995 97.300963) (xy 124.946994 97.68964)
        (xy 125.172728 97.783372) (xy 125.008791 97.851277) (xy 124.896233 98.046628) (xy 125.73 98.880395) (xy 126.563767 98.046628)
        (xy 126.451209 97.851277) (xy 126.274842 97.788568) (xy 126.510963 97.691005) (xy 126.89964 97.303006) (xy 127.110249 96.795801)
        (xy 127.110729 96.246608) (xy 126.901005 95.739037) (xy 126.513006 95.35036) (xy 126.005801 95.139751) (xy 125.456608 95.139271)
        (xy 124.949037 95.348995) (xy 124.56036 95.736994) (xy 124.460014 95.978656) (xy 124.361005 95.739037) (xy 123.973006 95.35036)
        (xy 123.465801 95.139751) (xy 122.916608 95.139271) (xy 122.409037 95.348995) (xy 122.02036 95.736994) (xy 121.809751 96.244199)
        (xy 121.809271 96.793392) (xy 117.321 96.793392) (xy 117.321 94.461) (xy 131.599 94.461)
      )
    )
  )
)
