EESchema Schematic File Version 2
LIBS:power
LIBS:device
LIBS:transistors
LIBS:conn
LIBS:linear
LIBS:regul
LIBS:74xx
LIBS:cmos4000
LIBS:adc-dac
LIBS:memory
LIBS:xilinx
LIBS:microcontrollers
LIBS:dsp
LIBS:microchip
LIBS:analog_switches
LIBS:motorola
LIBS:texas
LIBS:intel
LIBS:audio
LIBS:interface
LIBS:digital-audio
LIBS:philips
LIBS:display
LIBS:cypress
LIBS:siliconi
LIBS:opto
LIBS:atmel
LIBS:contrib
LIBS:valves
LIBS:comm
LIBS:project-cache
EELAYER 25 0
EELAYER END
$Descr A4 11693 8268
encoding utf-8
Sheet 1 1
Title ""
Date "10 dec 2013"
Rev ""
Comp ""
Comment1 ""
Comment2 ""
Comment3 ""
Comment4 ""
$EndDescr
Text Label 5800 3000 0    60   ~ 0
D+
Text Label 5800 2900 0    60   ~ 0
D-
Wire Wire Line
	4650 2700 4650 2800
Wire Wire Line
	4650 2800 4750 2800
Wire Wire Line
	5800 2700 5800 2800
Wire Wire Line
	5800 2800 5900 2800
Wire Wire Line
	5400 3500 6300 3500
Wire Wire Line
	6300 3500 6300 3400
Wire Wire Line
	5900 3200 5800 3200
Wire Wire Line
	5800 3200 5800 3600
Connection ~ 5800 3500
$Comp
L GND #PWR01
U 1 1 52A5F790
P 4650 3500
F 0 "#PWR01" H 4650 3500 30  0001 C CNN
F 1 "GND" H 4650 3430 30  0001 C CNN
F 2 "" H 4650 3500 60  0001 C CNN
F 3 "" H 4650 3500 60  0001 C CNN
	1    4650 3500
	1    0    0    -1  
$EndComp
$Comp
L GND #PWR02
U 1 1 52A5F730
P 5800 3600
F 0 "#PWR02" H 5800 3600 30  0001 C CNN
F 1 "GND" H 5800 3530 30  0001 C CNN
F 2 "" H 5800 3600 60  0001 C CNN
F 3 "" H 5800 3600 60  0001 C CNN
	1    5800 3600
	1    0    0    -1  
$EndComp
$Comp
L USB_OTG P2
U 1 1 56A1EBB5
P 6200 3000
F 0 "P2" H 6525 2875 50  0000 C CNN
F 1 "USB_OTG" H 6200 3200 50  0000 C CNN
F 2 "Local:USB_Mini-B" V 6150 2900 60  0001 C CNN
F 3 "" V 6150 2900 60  0000 C CNN
	1    6200 3000
	0    1    1    0   
$EndComp
$Comp
L USB_B P1
U 1 1 56A1EC4C
P 5050 3000
F 0 "P1" H 5250 2800 50  0000 C CNN
F 1 "USB_B" H 5000 3200 50  0000 C CNN
F 2 "Local:USB-B" V 5000 2900 60  0001 C CNN
F 3 "" V 5000 2900 60  0000 C CNN
	1    5050 3000
	0    1    1    0   
$EndComp
$Comp
L +5V #PWR03
U 1 1 56A1ED9D
P 5800 2700
F 0 "#PWR03" H 5800 2550 50  0001 C CNN
F 1 "+5V" H 5800 2840 50  0000 C CNN
F 2 "" H 5800 2700 60  0000 C CNN
F 3 "" H 5800 2700 60  0000 C CNN
	1    5800 2700
	1    0    0    -1  
$EndComp
$Comp
L +5V #PWR04
U 1 1 56A1EDBF
P 4650 2700
F 0 "#PWR04" H 4650 2550 50  0001 C CNN
F 1 "+5V" H 4650 2840 50  0000 C CNN
F 2 "" H 4650 2700 60  0000 C CNN
F 3 "" H 4650 2700 60  0000 C CNN
	1    4650 2700
	1    0    0    -1  
$EndComp
Wire Wire Line
	5150 3300 5150 3400
Wire Wire Line
	5150 3400 4650 3400
Wire Wire Line
	4650 3100 4650 3500
Wire Wire Line
	4650 3100 4750 3100
Connection ~ 4650 3400
Wire Wire Line
	5900 2900 5800 2900
Wire Wire Line
	5900 3000 5800 3000
Wire Wire Line
	4750 2900 4650 2900
Wire Wire Line
	4750 3000 4650 3000
Text Label 4650 2900 0    60   ~ 0
D-
Text Label 4650 3000 0    60   ~ 0
D+
Wire Wire Line
	5900 3100 5800 3100
$Comp
L R R1
U 1 1 56A1F041
P 5650 3100
F 0 "R1" V 5730 3100 50  0000 C CNN
F 1 "R" V 5650 3100 50  0000 C CNN
F 2 "Local:R_0603" V 5580 3100 30  0001 C CNN
F 3 "" H 5650 3100 30  0000 C CNN
	1    5650 3100
	0    -1   -1   0   
$EndComp
Wire Wire Line
	5500 3100 5400 3100
Wire Wire Line
	5400 3100 5400 3500
Text Label 5800 3100 0    60   ~ 0
ID
Text Label 5800 4700 0    60   ~ 0
D+
Text Label 5800 4600 0    60   ~ 0
D-
Wire Wire Line
	4650 4400 4650 4500
Wire Wire Line
	4650 4500 4750 4500
Wire Wire Line
	5800 4400 5800 4500
Wire Wire Line
	5800 4500 5900 4500
Wire Wire Line
	5400 5200 6300 5200
Wire Wire Line
	6300 5200 6300 5100
Wire Wire Line
	5900 4900 5800 4900
Wire Wire Line
	5800 4900 5800 5300
Connection ~ 5800 5200
$Comp
L GND #PWR05
U 1 1 56A1F609
P 4650 5200
F 0 "#PWR05" H 4650 5200 30  0001 C CNN
F 1 "GND" H 4650 5130 30  0001 C CNN
F 2 "" H 4650 5200 60  0001 C CNN
F 3 "" H 4650 5200 60  0001 C CNN
	1    4650 5200
	1    0    0    -1  
$EndComp
$Comp
L GND #PWR06
U 1 1 56A1F60F
P 5800 5300
F 0 "#PWR06" H 5800 5300 30  0001 C CNN
F 1 "GND" H 5800 5230 30  0001 C CNN
F 2 "" H 5800 5300 60  0001 C CNN
F 3 "" H 5800 5300 60  0001 C CNN
	1    5800 5300
	1    0    0    -1  
$EndComp
$Comp
L USB_OTG P4
U 1 1 56A1F615
P 6200 4700
F 0 "P4" H 6525 4575 50  0000 C CNN
F 1 "USB_OTG" H 6200 4900 50  0000 C CNN
F 2 "Local:USB_Micro-B" V 6150 4600 60  0001 C CNN
F 3 "" V 6150 4600 60  0000 C CNN
	1    6200 4700
	0    1    1    0   
$EndComp
$Comp
L USB_B P3
U 1 1 56A1F61B
P 5050 4700
F 0 "P3" H 5250 4500 50  0000 C CNN
F 1 "USB_B" H 5000 4900 50  0000 C CNN
F 2 "Local:USB-B" V 5000 4600 60  0001 C CNN
F 3 "" V 5000 4600 60  0000 C CNN
	1    5050 4700
	0    1    1    0   
$EndComp
$Comp
L +5V #PWR07
U 1 1 56A1F621
P 5800 4400
F 0 "#PWR07" H 5800 4250 50  0001 C CNN
F 1 "+5V" H 5800 4540 50  0000 C CNN
F 2 "" H 5800 4400 60  0000 C CNN
F 3 "" H 5800 4400 60  0000 C CNN
	1    5800 4400
	1    0    0    -1  
$EndComp
$Comp
L +5V #PWR08
U 1 1 56A1F627
P 4650 4400
F 0 "#PWR08" H 4650 4250 50  0001 C CNN
F 1 "+5V" H 4650 4540 50  0000 C CNN
F 2 "" H 4650 4400 60  0000 C CNN
F 3 "" H 4650 4400 60  0000 C CNN
	1    4650 4400
	1    0    0    -1  
$EndComp
Wire Wire Line
	5150 5000 5150 5100
Wire Wire Line
	5150 5100 4650 5100
Wire Wire Line
	4650 4800 4650 5200
Wire Wire Line
	4650 4800 4750 4800
Connection ~ 4650 5100
Wire Wire Line
	5900 4600 5800 4600
Wire Wire Line
	5900 4700 5800 4700
Wire Wire Line
	4750 4600 4650 4600
Wire Wire Line
	4750 4700 4650 4700
Text Label 4650 4600 0    60   ~ 0
D-
Text Label 4650 4700 0    60   ~ 0
D+
Wire Wire Line
	5900 4800 5800 4800
$Comp
L R R2
U 1 1 56A1F639
P 5650 4800
F 0 "R2" V 5730 4800 50  0000 C CNN
F 1 "R" V 5650 4800 50  0000 C CNN
F 2 "Local:R_0603" V 5580 4800 30  0001 C CNN
F 3 "" H 5650 4800 30  0000 C CNN
	1    5650 4800
	0    -1   -1   0   
$EndComp
Wire Wire Line
	5500 4800 5400 4800
Wire Wire Line
	5400 4800 5400 5200
Text Label 5800 4800 0    60   ~ 0
ID
$EndSCHEMATC
