EESchema Schematic File Version 2  date Пн 25 ноя 2013 18:04:10
LIBS:power
LIBS:device
LIBS:transistors
LIBS:conn
LIBS:linear
LIBS:regul
LIBS:74xx
LIBS:cmos4000
LIBS:adc-dac
LIBS:memory
LIBS:xilinx
LIBS:special
LIBS:microcontrollers
LIBS:dsp
LIBS:microchip
LIBS:analog_switches
LIBS:motorola
LIBS:texas
LIBS:intel
LIBS:audio
LIBS:interface
LIBS:digital-audio
LIBS:philips
LIBS:display
LIBS:cypress
LIBS:siliconi
LIBS:opto
LIBS:atmel
LIBS:contrib
LIBS:valves
LIBS:project-cache
EELAYER 25  0
EELAYER END
$Descr A4 11700 8267
encoding utf-8
Sheet 1 1
Title ""
Date "25 nov 2013"
Rev ""
Comp ""
Comment1 ""
Comment2 ""
Comment3 ""
Comment4 ""
$EndDescr
Text Notes 5650 4500 0    60   ~ 0
OR
Wire Wire Line
	6050 4150 6050 4250
Wire Wire Line
	5500 3650 6400 3650
Wire Wire Line
	5000 3950 5200 3950
Wire Wire Line
	5500 4150 5500 4250
Wire Wire Line
	5500 3050 5500 2950
Connection ~ 5500 3650
Wire Wire Line
	5500 3550 5500 3750
Wire Wire Line
	4400 3950 4500 3950
Wire Wire Line
	6400 3750 6300 3750
Wire Wire Line
	6300 3750 6300 4250
Wire Wire Line
	4500 4250 4500 4150
Wire Wire Line
	4500 4150 4400 4150
Wire Wire Line
	6400 3550 6300 3550
Wire Wire Line
	6300 3550 6300 2950
Wire Wire Line
	5100 3950 5100 4400
Connection ~ 5100 3950
Wire Wire Line
	5100 4400 5650 4400
Wire Wire Line
	5650 4400 5650 3950
Wire Wire Line
	5650 3950 5750 3950
Wire Wire Line
	6050 3750 6050 3650
Connection ~ 6050 3650
$Comp
L GND #PWR01
U 1 1 5293373D
P 6050 4250
F 0 "#PWR01" H 6050 4250 30  0001 C CNN
F 1 "GND" H 6050 4180 30  0001 C CNN
	1    6050 4250
	1    0    0    -1  
$EndComp
$Comp
L BC547 Q2
U 1 1 529336D7
P 5950 3950
F 0 "Q2" H 5950 3801 40  0000 R CNN
F 1 "BC547" H 5950 4100 40  0000 R CNN
F 2 "TO92" H 5850 4052 29  0000 C CNN
	1    5950 3950
	1    0    0    -1  
$EndComp
$Comp
L BC817-40 Q1
U 1 1 5293364C
P 5400 3950
F 0 "Q1" H 5400 3801 40  0000 R CNN
F 1 "BC817-25" H 5400 4100 40  0000 R CNN
F 2 "SOT-23" H 5200 4052 29  0000 C CNN
	1    5400 3950
	1    0    0    -1  
$EndComp
$Comp
L VCC #PWR02
U 1 1 5293342B
P 6300 2950
F 0 "#PWR02" H 6300 3050 30  0001 C CNN
F 1 "VCC" H 6300 3050 30  0000 C CNN
	1    6300 2950
	1    0    0    -1  
$EndComp
$Comp
L CONN_3 K1
U 1 1 5293340B
P 6750 3650
F 0 "K1" V 6700 3650 50  0000 C CNN
F 1 "OUT" V 6800 3650 40  0000 C CNN
	1    6750 3650
	1    0    0    1   
$EndComp
$Comp
L GND #PWR03
U 1 1 52933252
P 5500 4250
F 0 "#PWR03" H 5500 4250 30  0001 C CNN
F 1 "GND" H 5500 4180 30  0001 C CNN
	1    5500 4250
	1    0    0    -1  
$EndComp
$Comp
L GND #PWR04
U 1 1 52933240
P 4500 4250
F 0 "#PWR04" H 4500 4250 30  0001 C CNN
F 1 "GND" H 4500 4180 30  0001 C CNN
	1    4500 4250
	1    0    0    -1  
$EndComp
$Comp
L VCC #PWR05
U 1 1 52933231
P 5500 2950
F 0 "#PWR05" H 5500 3050 30  0001 C CNN
F 1 "VCC" H 5500 3050 30  0000 C CNN
	1    5500 2950
	1    0    0    -1  
$EndComp
$Comp
L GND #PWR06
U 1 1 5293321F
P 6300 4250
F 0 "#PWR06" H 6300 4250 30  0001 C CNN
F 1 "GND" H 6300 4180 30  0001 C CNN
	1    6300 4250
	1    0    0    -1  
$EndComp
$Comp
L CONN_2 P1
U 1 1 529331CD
P 4050 4050
F 0 "P1" V 4000 4050 40  0000 C CNN
F 1 "IN" V 4100 4050 40  0000 C CNN
	1    4050 4050
	-1   0    0    1   
$EndComp
$Comp
L R R2
U 1 1 529331A1
P 5500 3300
F 0 "R2" V 5580 3300 50  0000 C CNN
F 1 "10K" V 5500 3300 50  0000 C CNN
	1    5500 3300
	-1   0    0    1   
$EndComp
$Comp
L R R1
U 1 1 52933178
P 4750 3950
F 0 "R1" V 4830 3950 50  0000 C CNN
F 1 "100K" V 4750 3950 50  0000 C CNN
	1    4750 3950
	0    -1   -1   0   
$EndComp
$EndSCHEMATC
