EESchema Schematic File Version 2
LIBS:power
LIBS:device
LIBS:transistors
LIBS:conn
LIBS:linear
LIBS:regul
LIBS:74xx
LIBS:cmos4000
LIBS:adc-dac
LIBS:memory
LIBS:xilinx
LIBS:special
LIBS:microcontrollers
LIBS:dsp
LIBS:microchip
LIBS:analog_switches
LIBS:motorola
LIBS:texas
LIBS:intel
LIBS:audio
LIBS:interface
LIBS:digital-audio
LIBS:philips
LIBS:display
LIBS:cypress
LIBS:siliconi
LIBS:opto
LIBS:atmel
LIBS:contrib
LIBS:valves
LIBS:mc34063
LIBS:project-cache
EELAYER 27 0
EELAYER END
$Descr A4 11693 8268
encoding utf-8
Sheet 1 1
Title ""
Date "19 jan 2014"
Rev ""
Comp ""
Comment1 ""
Comment2 ""
Comment3 ""
Comment4 ""
$EndDescr
Connection ~ 5900 2300
Wire Wire Line
	5900 2300 5900 2100
Wire Wire Line
	5900 2100 5800 2100
Wire Wire Line
	7900 5100 7800 5100
Wire Wire Line
	7800 5100 7800 5300
Connection ~ 7500 5300
Wire Wire Line
	7800 5300 7500 5300
Connection ~ 3700 3800
Wire Wire Line
	3700 3700 3700 4200
Wire Wire Line
	3700 4200 3500 4200
Connection ~ 7500 2700
Wire Wire Line
	7300 2950 7300 2700
Wire Wire Line
	7300 4250 7300 4400
Wire Wire Line
	7000 3750 7000 3450
Wire Wire Line
	7150 4500 7150 4400
Wire Wire Line
	6900 2300 5800 2300
Wire Wire Line
	3700 3200 3700 2300
Wire Wire Line
	6600 4400 6700 4400
Connection ~ 3700 2700
Wire Wire Line
	3700 2300 5200 2300
Wire Wire Line
	3700 2950 4050 2950
Wire Wire Line
	4050 2950 4050 3300
Wire Wire Line
	4050 3300 4400 3300
Wire Wire Line
	4050 4300 4050 4400
Connection ~ 4300 4700
Wire Wire Line
	4400 4700 4200 4700
Wire Wire Line
	4050 3900 4050 3700
Connection ~ 4050 3800
Wire Wire Line
	4400 4400 4300 4400
Wire Wire Line
	4300 4400 4300 4700
Wire Wire Line
	3700 4700 3600 4700
Wire Wire Line
	4400 2700 4300 2700
Wire Wire Line
	3800 2700 3700 2700
Connection ~ 3700 2950
Wire Wire Line
	4400 3800 3700 3800
Wire Wire Line
	6600 3800 6700 3800
Wire Wire Line
	6700 3800 6700 3900
Wire Wire Line
	6700 4500 6700 4300
Connection ~ 6700 4400
Wire Wire Line
	7500 5400 7500 5200
Connection ~ 7500 4700
Wire Wire Line
	6600 2700 6700 2700
Connection ~ 6700 2300
Wire Wire Line
	6700 2700 6700 2300
Wire Wire Line
	7300 2300 7500 2300
Wire Wire Line
	7500 2300 7500 4800
Wire Wire Line
	7300 4400 7000 4400
Connection ~ 7150 4400
Wire Wire Line
	7300 3550 6600 3550
Connection ~ 7000 3550
Wire Wire Line
	7300 3650 7300 3350
Connection ~ 7300 3550
Wire Wire Line
	7500 2700 7000 2700
Connection ~ 7300 2700
Wire Wire Line
	7000 4400 7000 4150
Wire Wire Line
	7000 2700 7000 2850
Wire Wire Line
	3500 4400 3600 4400
Wire Wire Line
	3600 4400 3600 4800
Connection ~ 3600 4700
Wire Wire Line
	7900 4900 7800 4900
Wire Wire Line
	7800 4900 7800 4700
Wire Wire Line
	7800 4700 4900 4700
Wire Wire Line
	5200 2100 5100 2100
Wire Wire Line
	5100 2100 5100 2300
Connection ~ 5100 2300
$Comp
L JUMPER JP1
U 1 1 52DB74BC
P 5500 2100
F 0 "JP1" H 5500 2250 60  0000 C CNN
F 1 "JUMPER" H 5500 2020 40  0000 C CNN
F 2 "" H 5500 2100 60  0001 C CNN
F 3 "" H 5500 2100 60  0001 C CNN
	1    5500 2100
	1    0    0    -1  
$EndComp
$Comp
L CONN_2 P2
U 1 1 52DB6666
P 8250 5000
F 0 "P2" V 8200 5000 40  0000 C CNN
F 1 "PWO" V 8300 5000 40  0000 C CNN
F 2 "" H 8250 5000 60  0001 C CNN
F 3 "" H 8250 5000 60  0001 C CNN
	1    8250 5000
	1    0    0    1   
$EndComp
$Comp
L CONN_2 P1
U 1 1 52DB6634
P 3150 4300
F 0 "P1" V 3100 4300 40  0000 C CNN
F 1 "PWI" V 3200 4300 40  0000 C CNN
F 2 "" H 3150 4300 60  0001 C CNN
F 3 "" H 3150 4300 60  0001 C CNN
	1    3150 4300
	-1   0    0    1   
$EndComp
$Comp
L INDUCTOR L3
U 1 1 52DB5CAC
P 7300 3950
F 0 "L3" V 7250 3950 40  0000 C CNN
F 1 "VI_L" V 7400 3950 40  0000 C CNN
F 2 "" H 7300 3950 60  0001 C CNN
F 3 "" H 7300 3950 60  0001 C CNN
	1    7300 3950
	1    0    0    -1  
$EndComp
$Comp
L DIODESCH D4
U 1 1 52DB5C75
P 7300 3150
F 0 "D4" H 7300 3250 40  0000 C CNN
F 1 "VI_D" H 7300 3050 40  0000 C CNN
F 2 "" H 7300 3150 60  0001 C CNN
F 3 "" H 7300 3150 60  0001 C CNN
	1    7300 3150
	0    -1   1    0   
$EndComp
Text Notes 7700 2450 0    60   ~ 0
~Step-Up Configuration\nSD_D = SC\nSD_L = NA\nVI_L = NA\nVI_D = NA\n\n~Step-Down Configuration\nSU_L = SC\nSU_D = NA\nSU_R = SC\nVI_L = NA\nVI_D = NA\n\n~Voltage Inverter Conviguration\nSU_L = SC\nSU_D = NA\nSU_R = SC\nSD_L = NA\nSD_D = NA\n\n*SC — Short Cut\n*NA — Nothing Attached\n\nD = 1N5819
$Comp
L INDUCTOR L2
U 1 1 52D9088E
P 7000 3150
F 0 "L2" V 6950 3150 40  0000 C CNN
F 1 "SD_L" V 7100 3150 40  0000 C CNN
F 2 "" H 7000 3150 60  0001 C CNN
F 3 "" H 7000 3150 60  0001 C CNN
	1    7000 3150
	1    0    0    -1  
$EndComp
$Comp
L DIODESCH D2
U 1 1 52D90814
P 7000 3950
F 0 "D2" H 7000 4050 40  0000 C CNN
F 1 "SD_D" H 7000 3850 40  0000 C CNN
F 2 "" H 7000 3950 60  0001 C CNN
F 3 "" H 7000 3950 60  0001 C CNN
	1    7000 3950
	0    -1   -1   0   
$EndComp
$Comp
L DIODESCH D3
U 1 1 52D9067A
P 7100 2300
F 0 "D3" H 7100 2400 40  0000 C CNN
F 1 "SU_D" H 7100 2200 40  0000 C CNN
F 2 "" H 7100 2300 60  0001 C CNN
F 3 "" H 7100 2300 60  0001 C CNN
	1    7100 2300
	1    0    0    -1  
$EndComp
$Comp
L GND #PWR01
U 1 1 52D90654
P 7500 5400
F 0 "#PWR01" H 7500 5400 30  0001 C CNN
F 1 "GND" H 7500 5330 30  0001 C CNN
F 2 "" H 7500 5400 60  0001 C CNN
F 3 "" H 7500 5400 60  0001 C CNN
	1    7500 5400
	1    0    0    -1  
$EndComp
$Comp
L CP1 C3
U 1 1 52D90643
P 7500 5000
F 0 "C3" H 7550 5100 50  0000 L CNN
F 1 "CPO" H 7550 4900 50  0000 L CNN
F 2 "" H 7500 5000 60  0001 C CNN
F 3 "" H 7500 5000 60  0001 C CNN
	1    7500 5000
	1    0    0    -1  
$EndComp
$Comp
L C C2
U 1 1 52D90606
P 6700 4100
F 0 "C2" H 6750 4200 50  0000 L CNN
F 1 "CIO" H 6750 4000 50  0000 L CNN
F 2 "" H 6700 4100 60  0001 C CNN
F 3 "" H 6700 4100 60  0001 C CNN
	1    6700 4100
	1    0    0    -1  
$EndComp
$Comp
L GND #PWR02
U 1 1 52D905F6
P 6700 4500
F 0 "#PWR02" H 6700 4500 30  0001 C CNN
F 1 "GND" H 6700 4430 30  0001 C CNN
F 2 "" H 6700 4500 60  0001 C CNN
F 3 "" H 6700 4500 60  0001 C CNN
	1    6700 4500
	1    0    0    -1  
$EndComp
$Comp
L GND #PWR03
U 1 1 52D905CF
P 7150 4500
F 0 "#PWR03" H 7150 4500 30  0001 C CNN
F 1 "GND" H 7150 4430 30  0001 C CNN
F 2 "" H 7150 4500 60  0001 C CNN
F 3 "" H 7150 4500 60  0001 C CNN
	1    7150 4500
	1    0    0    -1  
$EndComp
$Comp
L INDUCTOR L1
U 1 1 52D90578
P 5500 2300
F 0 "L1" V 5450 2300 40  0000 C CNN
F 1 "SU_L" V 5600 2300 40  0000 C CNN
F 2 "" H 5500 2300 60  0001 C CNN
F 3 "" H 5500 2300 60  0001 C CNN
	1    5500 2300
	0    1    1    0   
$EndComp
$Comp
L VCC #PWR04
U 1 1 52D90423
P 4050 3700
F 0 "#PWR04" H 4050 3800 30  0001 C CNN
F 1 "VCC" H 4050 3800 30  0000 C CNN
F 2 "" H 4050 3700 60  0001 C CNN
F 3 "" H 4050 3700 60  0001 C CNN
	1    4050 3700
	1    0    0    -1  
$EndComp
$Comp
L GND #PWR05
U 1 1 52D903CA
P 4050 4400
F 0 "#PWR05" H 4050 4400 30  0001 C CNN
F 1 "GND" H 4050 4330 30  0001 C CNN
F 2 "" H 4050 4400 60  0001 C CNN
F 3 "" H 4050 4400 60  0001 C CNN
	1    4050 4400
	1    0    0    -1  
$EndComp
$Comp
L GND #PWR06
U 1 1 52D903A8
P 3600 4800
F 0 "#PWR06" H 3600 4800 30  0001 C CNN
F 1 "GND" H 3600 4730 30  0001 C CNN
F 2 "" H 3600 4800 60  0001 C CNN
F 3 "" H 3600 4800 60  0001 C CNN
	1    3600 4800
	1    0    0    -1  
$EndComp
$Comp
L R R4
U 1 1 52D9034D
P 4650 4700
F 0 "R4" V 4730 4700 50  0000 C CNN
F 1 "RDU" V 4650 4700 50  0000 C CNN
F 2 "" H 4650 4700 60  0001 C CNN
F 3 "" H 4650 4700 60  0001 C CNN
	1    4650 4700
	0    -1   -1   0   
$EndComp
$Comp
L R R2
U 1 1 52D90313
P 3950 4700
F 0 "R2" V 4030 4700 50  0000 C CNN
F 1 "RDD" V 3950 4700 50  0000 C CNN
F 2 "" H 3950 4700 60  0001 C CNN
F 3 "" H 3950 4700 60  0001 C CNN
	1    3950 4700
	0    -1   -1   0   
$EndComp
$Comp
L CP1 C1
U 1 1 52D902FA
P 4050 4100
F 0 "C1" H 4100 4200 50  0000 L CNN
F 1 "CPI" H 4100 4000 50  0000 L CNN
F 2 "" H 4050 4100 60  0001 C CNN
F 3 "" H 4050 4100 60  0001 C CNN
	1    4050 4100
	1    0    0    -1  
$EndComp
$Comp
L R R1
U 1 1 52D90291
P 3700 3450
F 0 "R1" V 3780 3450 50  0000 C CNN
F 1 "RBR" V 3700 3450 50  0000 C CNN
F 2 "" H 3700 3450 60  0001 C CNN
F 3 "" H 3700 3450 60  0001 C CNN
	1    3700 3450
	-1   0    0    1   
$EndComp
$Comp
L R R3
U 1 1 52D90283
P 4050 2700
F 0 "R3" V 4130 2700 50  0000 C CNN
F 1 "SU_R" V 3950 2700 50  0000 C CNN
F 2 "" H 4050 2700 60  0001 C CNN
F 3 "" H 4050 2700 60  0001 C CNN
	1    4050 2700
	0    -1   -1   0   
$EndComp
$Comp
L MC34063A D1
U 1 1 52D9021A
P 5500 3550
F 0 "D1" H 5500 4600 60  0000 C CNN
F 1 "MC34063A" H 5500 2500 60  0000 C CNN
F 2 "" H 5500 3550 60  0001 C CNN
F 3 "" H 5500 3550 60  0001 C CNN
	1    5500 3550
	1    0    0    -1  
$EndComp
$EndSCHEMATC
