PCBNEW-LibModule-V1  Пн 25 ноя 2013 16:22:06
# encoding utf-8
$INDEX
PHINTER
$EndINDEX
$MODULE PHINTER
Po 0 0 0 15 52932426 52932233 ~~
Li PHINTER
Sc 52932233
AR 
Op 0 0 0
T0 0 591 600 600 0 120 N V 21 N "PHINTER"
T1 0 -591 600 600 0 120 N V 21 N "VAL**"
DS 2362 -394 2362 -197 150 21
DS 2362 -197 2362 -394 150 21
DS 2362 -394 2559 -394 150 21
DS 2756 394 2756 -394 150 21
DS 2362 -591 2362 -394 150 21
DS 2362 -394 2756 0 150 21
DS 2756 0 2362 394 150 21
DS 2362 394 2362 591 150 21
DS -2756 198 -2362 198 150 21
DS -2362 198 -2559 198 150 21
DS -2559 198 -2362 -196 150 21
DS -2362 -196 -2756 -196 150 21
DS -2756 -196 -2559 198 150 21
DS -2559 198 -2559 591 150 21
DS -2559 591 -2559 -590 150 21
DS 2165 1181 2165 -1181 150 21
DS -2165 1181 -2165 -1181 150 21
DS 591 1181 591 -1181 150 21
DS -591 1181 -591 -1181 150 21
DC 3740 0 3740 -591 150 21
DC -3740 0 -3740 -591 150 21
DA 3740 0 4921 0 900 150 21
DA 3740 0 3740 -1181 900 150 21
DA -3740 0 -4921 0 900 150 21
DA -3740 0 -3740 1181 900 150 21
DS -3740 -1181 3740 -1181 150 21
DS 3740 1181 -3740 1181 150 21
$PAD
Sh "1" R 787 787 0 0 0
Dr 320 0 0
At STD N 00E0FFFF
Ne 0 ""
Po -1378 -492
$EndPAD
$PAD
Sh "2" C 787 787 0 0 0
Dr 320 0 0
At STD N 00E0FFFF
Ne 0 ""
Po -1378 492
$EndPAD
$PAD
Sh "4" C 787 787 0 0 0
Dr 320 0 0
At STD N 00E0FFFF
Ne 0 ""
Po 1378 -492
$EndPAD
$PAD
Sh "3" C 787 787 0 0 0
Dr 320 0 0
At STD N 00E0FFFF
Ne 0 ""
Po 1378 492
$EndPAD
$EndMODULE  PHINTER
$EndLIBRARY
