EESchema Schematic File Version 2  date Ср 18 дек 2013 13:24:29
LIBS:power
LIBS:device
LIBS:transistors
LIBS:conn
LIBS:linear
LIBS:regul
LIBS:74xx
LIBS:cmos4000
LIBS:adc-dac
LIBS:memory
LIBS:xilinx
LIBS:special
LIBS:microcontrollers
LIBS:dsp
LIBS:microchip
LIBS:analog_switches
LIBS:motorola
LIBS:texas
LIBS:intel
LIBS:audio
LIBS:interface
LIBS:digital-audio
LIBS:philips
LIBS:display
LIBS:cypress
LIBS:siliconi
LIBS:opto
LIBS:atmel
LIBS:contrib
LIBS:valves
LIBS:max6675
LIBS:project-cache
EELAYER 25  0
EELAYER END
$Descr A4 11700 8267
encoding utf-8
Sheet 1 1
Title ""
Date "18 dec 2013"
Rev ""
Comp ""
Comment1 ""
Comment2 ""
Comment3 ""
Comment4 ""
$EndDescr
Connection ~ 5300 4000
Wire Wire Line
	5300 4000 5300 4400
Wire Wire Line
	4500 4100 4500 4400
Wire Wire Line
	6200 3900 6550 3900
Wire Wire Line
	6550 3700 6450 3700
Wire Wire Line
	6450 3700 6450 3400
Wire Wire Line
	5800 4300 5800 4400
Wire Wire Line
	5400 4000 5200 4000
Wire Wire Line
	5400 3800 5200 3800
Wire Wire Line
	6550 4100 6450 4100
Wire Wire Line
	6450 4100 6450 4400
Wire Wire Line
	5800 3500 5800 3400
Wire Wire Line
	6200 3800 6550 3800
Wire Wire Line
	4500 3700 4500 3400
Wire Wire Line
	6550 4000 6200 4000
$Comp
L GND #PWR01
U 1 1 52B14CD1
P 5300 4400
F 0 "#PWR01" H 5300 4400 30  0001 C CNN
F 1 "GND" H 5300 4330 30  0001 C CNN
	1    5300 4400
	1    0    0    -1  
$EndComp
$Comp
L CONN_5 P2
U 1 1 52935DA4
P 6950 3900
F 0 "P2" V 6900 3900 50  0000 C CNN
F 1 "TO_MCU" V 7000 3900 50  0000 C CNN
	1    6950 3900
	1    0    0    1   
$EndComp
$Comp
L VCC #PWR02
U 1 1 52935A83
P 4500 3400
F 0 "#PWR02" H 4500 3500 30  0001 C CNN
F 1 "VCC" H 4500 3500 30  0000 C CNN
	1    4500 3400
	1    0    0    -1  
$EndComp
$Comp
L GND #PWR03
U 1 1 52935A80
P 4500 4400
F 0 "#PWR03" H 4500 4400 30  0001 C CNN
F 1 "GND" H 4500 4330 30  0001 C CNN
	1    4500 4400
	1    0    0    -1  
$EndComp
$Comp
L C C1
U 1 1 52935A5C
P 4500 3900
F 0 "C1" H 4550 4000 50  0000 L CNN
F 1 "100n" H 4550 3800 50  0000 L CNN
	1    4500 3900
	-1   0    0    -1  
$EndComp
$Comp
L CONN_2 P1
U 1 1 52935958
P 4850 3900
F 0 "P1" V 4800 3900 40  0000 C CNN
F 1 "TC" V 4900 3900 40  0000 C CNN
	1    4850 3900
	-1   0    0    1   
$EndComp
$Comp
L GND #PWR04
U 1 1 5293594F
P 5800 4400
F 0 "#PWR04" H 5800 4400 30  0001 C CNN
F 1 "GND" H 5800 4330 30  0001 C CNN
	1    5800 4400
	1    0    0    -1  
$EndComp
$Comp
L VCC #PWR05
U 1 1 5293594B
P 5800 3400
F 0 "#PWR05" H 5800 3500 30  0001 C CNN
F 1 "VCC" H 5800 3500 30  0000 C CNN
	1    5800 3400
	1    0    0    -1  
$EndComp
$Comp
L VCC #PWR06
U 1 1 52935946
P 6450 3400
F 0 "#PWR06" H 6450 3500 30  0001 C CNN
F 1 "VCC" H 6450 3500 30  0000 C CNN
	1    6450 3400
	1    0    0    -1  
$EndComp
$Comp
L GND #PWR07
U 1 1 52935941
P 6450 4400
F 0 "#PWR07" H 6450 4400 30  0001 C CNN
F 1 "GND" H 6450 4330 30  0001 C CNN
	1    6450 4400
	1    0    0    -1  
$EndComp
$Comp
L MAX6675 D1
U 1 1 52935915
P 5800 3900
F 0 "D1" H 5550 4250 60  0000 C CNN
F 1 "MAX6675" H 6050 3550 60  0000 C CNN
	1    5800 3900
	1    0    0    -1  
$EndComp
$EndSCHEMATC
