EESchema Schematic File Version 2
LIBS:power
LIBS:device
LIBS:transistors
LIBS:conn
LIBS:linear
LIBS:regul
LIBS:74xx
LIBS:cmos4000
LIBS:adc-dac
LIBS:memory
LIBS:xilinx
LIBS:special
LIBS:microcontrollers
LIBS:dsp
LIBS:microchip
LIBS:analog_switches
LIBS:motorola
LIBS:texas
LIBS:intel
LIBS:audio
LIBS:interface
LIBS:digital-audio
LIBS:philips
LIBS:display
LIBS:cypress
LIBS:siliconi
LIBS:opto
LIBS:atmel
LIBS:contrib
LIBS:valves
EELAYER 24 0
EELAYER END
$Descr A4 11693 8268
encoding utf-8
Sheet 1 1
Title ""
Date ""
Rev ""
Comp ""
Comment1 ""
Comment2 ""
Comment3 ""
Comment4 ""
$EndDescr
$Comp
L LED D103
U 1 1 536A348C
P 5200 2400
F 0 "D103" H 5200 2500 50  0000 C CNN
F 1 "a" H 5200 2300 50  0000 C CNN
F 2 "LED-0603" H 5200 2400 60  0001 C CNN
F 3 "" H 5200 2400 60  0000 C CNN
	1    5200 2400
	-1   0    0    -1  
$EndComp
$Comp
L LED D101
U 1 1 536A34AE
P 4700 2700
F 0 "D101" H 4700 2800 50  0000 C CNN
F 1 "f" H 4700 2600 50  0000 C CNN
F 2 "LED-0603" H 4700 2700 60  0001 C CNN
F 3 "" H 4700 2700 60  0000 C CNN
	1    4700 2700
	0    -1   1    0   
$EndComp
$Comp
L LED D106
U 1 1 536A351F
P 5700 2700
F 0 "D106" H 5700 2800 50  0000 C CNN
F 1 "b" H 5700 2600 50  0000 C CNN
F 2 "LED-0603" H 5700 2700 60  0001 C CNN
F 3 "" H 5700 2700 60  0000 C CNN
	1    5700 2700
	0    -1   1    0   
$EndComp
$Comp
L LED D107
U 1 1 536A3525
P 5700 3700
F 0 "D107" H 5700 3800 50  0000 C CNN
F 1 "c" H 5700 3600 50  0000 C CNN
F 2 "LED-0603" H 5700 3700 60  0001 C CNN
F 3 "" H 5700 3700 60  0000 C CNN
	1    5700 3700
	0    -1   -1   0   
$EndComp
$Comp
L LED D104
U 1 1 536A352B
P 5200 3200
F 0 "D104" H 5200 3300 50  0000 C CNN
F 1 "g" H 5200 3100 50  0000 C CNN
F 2 "LED-0603" H 5200 3200 60  0001 C CNN
F 3 "" H 5200 3200 60  0000 C CNN
	1    5200 3200
	1    0    0    -1  
$EndComp
$Comp
L LED D102
U 1 1 536A354F
P 4700 3700
F 0 "D102" H 4700 3800 50  0000 C CNN
F 1 "e" H 4700 3600 50  0000 C CNN
F 2 "LED-0603" H 4700 3700 60  0001 C CNN
F 3 "" H 4700 3700 60  0000 C CNN
	1    4700 3700
	0    -1   -1   0   
$EndComp
$Comp
L LED D105
U 1 1 536A355A
P 5200 4000
F 0 "D105" H 5200 4100 50  0000 C CNN
F 1 "d" H 5200 3900 50  0000 C CNN
F 2 "LED-0603" H 5200 4000 60  0001 C CNN
F 3 "" H 5200 4000 60  0000 C CNN
	1    5200 4000
	1    0    0    -1  
$EndComp
$Comp
L LED D108
U 1 1 536A363B
P 5900 4000
F 0 "D108" H 5900 4100 50  0000 C CNN
F 1 "p" H 5900 3900 50  0000 C CNN
F 2 "LED-0603" H 5900 4000 60  0001 C CNN
F 3 "" H 5900 4000 60  0000 C CNN
	1    5900 4000
	0    -1   -1   0   
$EndComp
Wire Wire Line
	5700 2900 5700 3500
Wire Wire Line
	5400 3200 5700 3200
Connection ~ 5700 3200
Wire Wire Line
	4700 2900 4700 3000
Wire Wire Line
	4700 3000 5700 3000
Connection ~ 5700 3000
Wire Wire Line
	5000 2400 4900 2400
Wire Wire Line
	4900 2400 4900 3000
Connection ~ 4900 3000
Wire Wire Line
	4700 3500 4700 3400
Wire Wire Line
	4400 3400 5900 3400
Connection ~ 5700 3400
Connection ~ 5500 3400
Wire Wire Line
	5900 3400 5900 3800
Wire Wire Line
	5900 4200 5900 4300
Wire Wire Line
	5700 3900 5700 4000
Wire Wire Line
	5000 4000 4800 4000
Wire Wire Line
	4800 4000 4800 4900
Wire Wire Line
	4700 3900 4700 4000
Wire Wire Line
	4700 2500 4700 2400
Wire Wire Line
	5600 2400 5400 2400
Wire Wire Line
	5600 1800 5600 2400
Wire Wire Line
	4500 3200 5000 3200
Wire Wire Line
	4500 2400 4500 3200
Wire Wire Line
	4400 3400 4400 3500
Wire Wire Line
	5800 2400 5700 2400
Wire Wire Line
	5800 1800 5800 2400
Wire Wire Line
	5700 2400 5700 2500
Wire Wire Line
	4800 1800 4800 2400
Wire Wire Line
	4800 2400 4700 2400
Wire Wire Line
	4500 2400 4600 2400
Wire Wire Line
	4600 2400 4600 1800
Wire Wire Line
	5700 4000 5600 4000
Wire Wire Line
	5600 4000 5600 4900
Wire Wire Line
	5900 4300 5800 4300
Wire Wire Line
	5800 4300 5800 4900
Wire Wire Line
	4700 4000 4600 4000
Wire Wire Line
	4600 4000 4600 4900
$Comp
L R R107
U 1 1 536A3AFD
P 5800 1550
F 0 "R107" V 5880 1550 40  0000 C CNN
F 1 "68" V 5807 1551 40  0000 C CNN
F 2 "SM0603" V 5730 1550 30  0001 C CNN
F 3 "" H 5800 1550 30  0000 C CNN
	1    5800 1550
	-1   0    0    1   
$EndComp
$Comp
L R R105
U 1 1 536A3BE1
P 5600 1550
F 0 "R105" V 5680 1550 40  0000 C CNN
F 1 "68" V 5607 1551 40  0000 C CNN
F 2 "SM0603" V 5530 1550 30  0001 C CNN
F 3 "" H 5600 1550 30  0000 C CNN
	1    5600 1550
	-1   0    0    1   
$EndComp
$Comp
L R R103
U 1 1 536A3BE7
P 4800 1550
F 0 "R103" V 4880 1550 40  0000 C CNN
F 1 "68" V 4807 1551 40  0000 C CNN
F 2 "SM0603" V 4730 1550 30  0001 C CNN
F 3 "" H 4800 1550 30  0000 C CNN
	1    4800 1550
	-1   0    0    1   
$EndComp
$Comp
L R R101
U 1 1 536A3BED
P 4600 1550
F 0 "R101" V 4680 1550 40  0000 C CNN
F 1 "68" V 4607 1551 40  0000 C CNN
F 2 "SM0603" V 4530 1550 30  0001 C CNN
F 3 "" H 4600 1550 30  0000 C CNN
	1    4600 1550
	-1   0    0    1   
$EndComp
$Comp
L R R102
U 1 1 536A3BF3
P 4600 5150
F 0 "R102" V 4680 5150 40  0000 C CNN
F 1 "68" V 4607 5151 40  0000 C CNN
F 2 "SM0603" V 4530 5150 30  0001 C CNN
F 3 "" H 4600 5150 30  0000 C CNN
	1    4600 5150
	-1   0    0    1   
$EndComp
$Comp
L R R104
U 1 1 536A3BF9
P 4800 5150
F 0 "R104" V 4880 5150 40  0000 C CNN
F 1 "68" V 4807 5151 40  0000 C CNN
F 2 "SM0603" V 4730 5150 30  0001 C CNN
F 3 "" H 4800 5150 30  0000 C CNN
	1    4800 5150
	-1   0    0    1   
$EndComp
$Comp
L R R106
U 1 1 536A3BFF
P 5600 5150
F 0 "R106" V 5680 5150 40  0000 C CNN
F 1 "68" V 5607 5151 40  0000 C CNN
F 2 "SM0603" V 5530 5150 30  0001 C CNN
F 3 "" H 5600 5150 30  0000 C CNN
	1    5600 5150
	-1   0    0    1   
$EndComp
$Comp
L R R108
U 1 1 536A3C05
P 5800 5150
F 0 "R108" V 5880 5150 40  0000 C CNN
F 1 "68" V 5807 5151 40  0000 C CNN
F 2 "SM0603" V 5730 5150 30  0001 C CNN
F 3 "" H 5800 5150 30  0000 C CNN
	1    5800 5150
	-1   0    0    1   
$EndComp
Wire Wire Line
	4600 1300 4600 1200
Wire Wire Line
	4800 1300 4800 1200
Wire Wire Line
	5600 1300 5600 1200
Wire Wire Line
	5800 1300 5800 1200
Wire Wire Line
	5600 5400 5600 5500
Wire Wire Line
	5800 5400 5800 5500
Wire Wire Line
	4800 5400 4800 5500
Wire Wire Line
	4600 5400 4600 5500
Wire Wire Line
	6700 3700 6600 3700
Wire Wire Line
	6600 3700 6600 3800
$Comp
L GND #PWR01
U 1 1 536A3F28
P 6600 3800
F 0 "#PWR01" H 6600 3800 30  0001 C CNN
F 1 "GND" H 6600 3730 30  0001 C CNN
F 2 "" H 6600 3800 60  0000 C CNN
F 3 "" H 6600 3800 60  0000 C CNN
	1    6600 3800
	1    0    0    -1  
$EndComp
Text Label 4600 1200 0    60   ~ 0
g
Text Label 4800 1200 0    60   ~ 0
f
Text Label 5600 1200 0    60   ~ 0
a
Text Label 5800 1200 0    60   ~ 0
b
Text Label 4600 5500 0    60   ~ 0
e
Text Label 4800 5500 0    60   ~ 0
d
Text Label 5600 5500 0    60   ~ 0
c
Text Label 5800 5500 0    60   ~ 0
p
Wire Wire Line
	6700 2800 6600 2800
Wire Wire Line
	6700 2900 6600 2900
Wire Wire Line
	6700 3000 6600 3000
Wire Wire Line
	6700 3100 6600 3100
Wire Wire Line
	6700 3200 6600 3200
Wire Wire Line
	6700 3300 6600 3300
Wire Wire Line
	6700 3400 6600 3400
Wire Wire Line
	6700 3500 6600 3500
Text Label 6600 2800 0    60   ~ 0
c
Text Label 6600 2900 0    60   ~ 0
p
Text Label 6600 3000 0    60   ~ 0
b
Text Label 6600 3100 0    60   ~ 0
a
Text Label 6600 3200 0    60   ~ 0
f
Text Label 6600 3300 0    60   ~ 0
g
Text Label 6600 3400 0    60   ~ 0
e
Text Label 6600 3500 0    60   ~ 0
d
$Comp
L NPN Q101
U 1 1 536A46B0
P 4300 3700
F 0 "Q101" H 4300 3550 50  0000 R CNN
F 1 "NPN" H 4300 3850 50  0000 R CNN
F 2 "SOT23EBC" H 4300 3700 60  0001 C CNN
F 3 "" H 4300 3700 60  0000 C CNN
	1    4300 3700
	1    0    0    -1  
$EndComp
$Comp
L GND #PWR02
U 1 1 536A39F5
P 4400 4000
F 0 "#PWR02" H 4400 4000 30  0001 C CNN
F 1 "GND" H 4400 3930 30  0001 C CNN
F 2 "" H 4400 4000 60  0000 C CNN
F 3 "" H 4400 4000 60  0000 C CNN
	1    4400 4000
	1    0    0    -1  
$EndComp
Wire Wire Line
	4400 4000 4400 3900
$Comp
L R R109
U 1 1 536A49BC
P 4000 4050
F 0 "R109" V 4080 4050 40  0000 C CNN
F 1 "4K7" V 4007 4051 40  0000 C CNN
F 2 "SM0603" V 3930 4050 30  0001 C CNN
F 3 "" H 4000 4050 30  0000 C CNN
	1    4000 4050
	-1   0    0    1   
$EndComp
Wire Wire Line
	5400 4000 5500 4000
Wire Wire Line
	5500 4000 5500 3400
Connection ~ 4700 3400
Wire Wire Line
	4100 3700 4000 3700
Wire Wire Line
	4000 3700 4000 3800
Wire Wire Line
	4000 4300 4000 4400
Text Label 4000 4400 0    60   ~ 0
s1
$Comp
L CONN_10 P101
U 1 1 536A4BC2
P 7050 3250
F 0 "P101" V 7000 3250 60  0000 C CNN
F 1 "CONN_10" V 7100 3250 60  0000 C CNN
F 2 "SIL-10" H 7050 3250 60  0001 C CNN
F 3 "" H 7050 3250 60  0000 C CNN
	1    7050 3250
	1    0    0    1   
$EndComp
Wire Wire Line
	6700 3600 6600 3600
Text Label 6600 3600 0    60   ~ 0
s
$Comp
L LED D?
U 1 1 536A5403
P 2900 2200
F 0 "D?" H 2900 2300 50  0000 C CNN
F 1 "a" H 2900 2100 50  0000 C CNN
F 2 "LED-0603" H 2900 2200 60  0001 C CNN
F 3 "" H 2900 2200 60  0000 C CNN
	1    2900 2200
	-1   0    0    -1  
$EndComp
$Comp
L LED D?
U 1 1 536A5409
P 2400 2600
F 0 "D?" H 2400 2700 50  0000 C CNN
F 1 "f" H 2400 2500 50  0000 C CNN
F 2 "LED-0603" H 2400 2600 60  0001 C CNN
F 3 "" H 2400 2600 60  0000 C CNN
	1    2400 2600
	0    -1   1    0   
$EndComp
$Comp
L LED D?
U 1 1 536A540F
P 3400 2600
F 0 "D?" H 3400 2700 50  0000 C CNN
F 1 "b" H 3400 2500 50  0000 C CNN
F 2 "LED-0603" H 3400 2600 60  0001 C CNN
F 3 "" H 3400 2600 60  0000 C CNN
	1    3400 2600
	0    -1   1    0   
$EndComp
$Comp
L LED D?
U 1 1 536A5415
P 2900 3200
F 0 "D?" H 2900 3300 50  0000 C CNN
F 1 "g" H 2900 3100 50  0000 C CNN
F 2 "LED-0603" H 2900 3200 60  0001 C CNN
F 3 "" H 2900 3200 60  0000 C CNN
	1    2900 3200
	1    0    0    -1  
$EndComp
Wire Wire Line
	3400 2400 3400 2200
Wire Wire Line
	3400 2200 5800 2200
Connection ~ 5800 2200
Wire Wire Line
	3300 2200 3100 2200
Wire Wire Line
	3300 2100 3300 2200
Wire Wire Line
	3300 2100 5600 2100
Connection ~ 5600 2100
Wire Wire Line
	2400 2400 2400 2300
Wire Wire Line
	2500 2000 4800 2000
Connection ~ 4800 2000
Wire Wire Line
	2700 3200 2600 3200
Wire Wire Line
	2600 3200 2600 3000
Wire Wire Line
	2600 3000 4500 3000
Connection ~ 4500 3000
Wire Wire Line
	3400 3200 3100 3200
Wire Wire Line
	3400 2800 3400 3500
Wire Wire Line
	2700 2200 2600 2200
Wire Wire Line
	2600 2200 2600 2900
Wire Wire Line
	2400 2900 3400 2900
Wire Wire Line
	2400 2900 2400 2800
Connection ~ 3400 2900
Connection ~ 2600 2900
Wire Wire Line
	2400 2300 2500 2300
Wire Wire Line
	2500 2300 2500 2000
Wire Wire Line
	2100 3400 2100 3500
$Comp
L NPN Q?
U 1 1 536A591A
P 2000 3700
F 0 "Q?" H 2000 3550 50  0000 R CNN
F 1 "NPN" H 2000 3850 50  0000 R CNN
F 2 "SOT23EBC" H 2000 3700 60  0001 C CNN
F 3 "" H 2000 3700 60  0000 C CNN
	1    2000 3700
	1    0    0    -1  
$EndComp
$Comp
L GND #PWR?
U 1 1 536A5920
P 2100 4000
F 0 "#PWR?" H 2100 4000 30  0001 C CNN
F 1 "GND" H 2100 3930 30  0001 C CNN
F 2 "" H 2100 4000 60  0000 C CNN
F 3 "" H 2100 4000 60  0000 C CNN
	1    2100 4000
	1    0    0    -1  
$EndComp
Wire Wire Line
	2100 4000 2100 3900
$Comp
L R R?
U 1 1 536A5927
P 1700 4050
F 0 "R?" V 1780 4050 40  0000 C CNN
F 1 "4K7" V 1707 4051 40  0000 C CNN
F 2 "SM0603" V 1630 4050 30  0001 C CNN
F 3 "" H 1700 4050 30  0000 C CNN
	1    1700 4050
	-1   0    0    1   
$EndComp
Wire Wire Line
	1800 3700 1700 3700
Wire Wire Line
	1700 3700 1700 3800
Wire Wire Line
	1700 4300 1700 4400
Text Label 1700 4400 0    60   ~ 0
s0
$Comp
L LED D?
U 1 1 536A5931
P 3400 3700
F 0 "D?" H 3400 3800 50  0000 C CNN
F 1 "c" H 3400 3600 50  0000 C CNN
F 2 "LED-0603" H 3400 3700 60  0001 C CNN
F 3 "" H 3400 3700 60  0000 C CNN
	1    3400 3700
	0    -1   -1   0   
$EndComp
$Comp
L LED D?
U 1 1 536A5937
P 2400 3700
F 0 "D?" H 2400 3800 50  0000 C CNN
F 1 "e" H 2400 3600 50  0000 C CNN
F 2 "LED-0603" H 2400 3700 60  0001 C CNN
F 3 "" H 2400 3700 60  0000 C CNN
	1    2400 3700
	0    -1   -1   0   
$EndComp
$Comp
L LED D?
U 1 1 536A593D
P 2900 4000
F 0 "D?" H 2900 4100 50  0000 C CNN
F 1 "d" H 2900 3900 50  0000 C CNN
F 2 "LED-0603" H 2900 4000 60  0001 C CNN
F 3 "" H 2900 4000 60  0000 C CNN
	1    2900 4000
	1    0    0    -1  
$EndComp
$Comp
L LED D?
U 1 1 536A5943
P 3600 4000
F 0 "D?" H 3600 4100 50  0000 C CNN
F 1 "p" H 3600 3900 50  0000 C CNN
F 2 "LED-0603" H 3600 4000 60  0001 C CNN
F 3 "" H 3600 4000 60  0000 C CNN
	1    3600 4000
	0    -1   -1   0   
$EndComp
Wire Wire Line
	2400 3500 2400 3400
Wire Wire Line
	2100 3400 3600 3400
Connection ~ 3400 3200
Connection ~ 3400 3400
Wire Wire Line
	3600 3400 3600 3800
Connection ~ 2400 3400
Wire Wire Line
	3100 4000 3200 4000
Wire Wire Line
	3200 4000 3200 3400
Connection ~ 3200 3400
Wire Wire Line
	2400 3900 2400 4000
Wire Wire Line
	2400 4000 2300 4000
Wire Wire Line
	2300 4000 2300 4500
Wire Wire Line
	2300 4500 4600 4500
Connection ~ 4600 4500
Wire Wire Line
	2700 4000 2600 4000
Wire Wire Line
	2600 4000 2600 4600
Wire Wire Line
	2600 4600 4800 4600
Connection ~ 4800 4600
Wire Wire Line
	3400 3900 3400 4700
Wire Wire Line
	3400 4700 5600 4700
Connection ~ 5600 4700
Wire Wire Line
	3600 4200 3600 4800
Wire Wire Line
	3600 4800 5800 4800
Connection ~ 5800 4800
$EndSCHEMATC
